^C:\USERS\JEREMY REAGAN\DOCUMENTS\VISUAL STUDIO 2010\PROJECTS\HL7 ANALYST\HL7LIB\PROPERTIES\RESOURCES.RESX
C:\WINDOWS\ASSEMBLY\PUBPOL43.DAT
C:\WINDOWS\MICROSOFT.NET\ASSEMBLY\GAC_MSIL\MICROSOFT.BUILD.TASKS.V4.0\V4.0_4.0.0.0__B03F5F7F11D50A3A\MICROSOFT.BUILD.TASKS.V4.0.DLL
C:\USERS\JEREMY REAGAN\DOCUMENTS\VISUAL STUDIO 2010\PROJECTS\HL7 ANALYST\HL7LIB\RESOURCES\ADDRESS NAMES.TXT
C:\USERS\JEREMY REAGAN\DOCUMENTS\VISUAL STUDIO 2010\PROJECTS\HL7 ANALYST\HL7LIB\RESOURCES\BOY NAMES.TXT
C:\USERS\JEREMY REAGAN\DOCUMENTS\VISUAL STUDIO 2010\PROJECTS\HL7 ANALYST\HL7LIB\RESOURCES\GIRL NAMES.TXT
C:\USERS\JEREMY REAGAN\DOCUMENTS\VISUAL STUDIO 2010\PROJECTS\HL7 ANALYST\HL7LIB\RESOURCES\LAST NAMES.TXT
