^C:\USERS\JEREMY REAGAN\DOCUMENTS\VISUAL STUDIO 2010\PROJECTS\HL7LIB\HL7 ANALYST\FORM1.RESX|C:\USERS\JEREMY REAGAN\DOCUMENTS\VISUAL STUDIO 2010\PROJECTS\HL7LIB\HL7 ANALYST\PROPERTIES\RESOURCES.RESX
C:\USERS\JEREMY REAGAN\DOCUMENTS\VISUAL STUDIO 2010\PROJECTS\HL7LIB\HL7 ANALYST\OBJ\X86\DEBUG\HL7_ANALYST.FORM1.RESOURCES
C:\USERS\JEREMY REAGAN\DOCUMENTS\VISUAL STUDIO 2010\PROJECTS\HL7LIB\HL7 ANALYST\OBJ\X86\DEBUG\HL7_ANALYST.PROPERTIES.RESOURCES.RESOURCES
^C:\USERS\JEREMY REAGAN\DOCUMENTS\VISUAL STUDIO 2010\PROJECTS\HL7LIB\HL7 ANALYST\FRMMAIN.RESX|C:\USERS\JEREMY REAGAN\DOCUMENTS\VISUAL STUDIO 2010\PROJECTS\HL7LIB\HL7 ANALYST\PROPERTIES\RESOURCES.RESX
C:\USERS\JEREMY REAGAN\DOCUMENTS\VISUAL STUDIO 2010\PROJECTS\HL7LIB\HL7 ANALYST\OBJ\X86\DEBUG\HL7_ANALYST.FRMMAIN.RESOURCES
C:\USERS\JEREMY REAGAN\DOCUMENTS\VISUAL STUDIO 2010\PROJECTS\HL7LIB\HL7 ANALYST\OBJ\X86\DEBUG\HL7_ANALYST.PROPERTIES.RESOURCES.RESOURCES
^C:\USERS\JEREMY REAGAN\DOCUMENTS\VISUAL STUDIO 2010\PROJECTS\HL7LIB\HL7 ANALYST\FRMABOUT.RESX|C:\USERS\JEREMY REAGAN\DOCUMENTS\VISUAL STUDIO 2010\PROJECTS\HL7LIB\HL7 ANALYST\FRMHELP.RESX|C:\USERS\JEREMY REAGAN\DOCUMENTS\VISUAL STUDIO 2010\PROJECTS\HL7LIB\HL7 ANALYST\FRMMAIN.RESX|C:\USERS\JEREMY REAGAN\DOCUMENTS\VISUAL STUDIO 2010\PROJECTS\HL7LIB\HL7 ANALYST\FRMOPTIONS.RESX|C:\USERS\JEREMY REAGAN\DOCUMENTS\VISUAL STUDIO 2010\PROJECTS\HL7LIB\HL7 ANALYST\FRMPRESENTSEGMENTS.RESX|C:\USERS\JEREMY REAGAN\DOCUMENTS\VISUAL STUDIO 2010\PROJECTS\HL7LIB\HL7 ANALYST\FRMREPORTS.RESX|C:\USERS\JEREMY REAGAN\DOCUMENTS\VISUAL STUDIO 2010\PROJECTS\HL7LIB\HL7 ANALYST\PROPERTIES\RESOURCES.RESX
C:\USERS\JEREMY REAGAN\DOCUMENTS\VISUAL STUDIO 2010\PROJECTS\HL7LIB\HL7 ANALYST\OBJ\X86\DEBUG\HL7_ANALYST.FRMABOUT.RESOURCES
C:\USERS\JEREMY REAGAN\DOCUMENTS\VISUAL STUDIO 2010\PROJECTS\HL7LIB\HL7 ANALYST\OBJ\X86\DEBUG\HL7_ANALYST.FRMHELP.RESOURCES
C:\USERS\JEREMY REAGAN\DOCUMENTS\VISUAL STUDIO 2010\PROJECTS\HL7LIB\HL7 ANALYST\OBJ\X86\DEBUG\HL7_ANALYST.FRMMAIN.RESOURCES
C:\USERS\JEREMY REAGAN\DOCUMENTS\VISUAL STUDIO 2010\PROJECTS\HL7LIB\HL7 ANALYST\OBJ\X86\DEBUG\HL7_ANALYST.FRMOPTIONS.RESOURCES
C:\USERS\JEREMY REAGAN\DOCUMENTS\VISUAL STUDIO 2010\PROJECTS\HL7LIB\HL7 ANALYST\OBJ\X86\DEBUG\HL7_ANALYST.FRMPRESENTSEGMENTS.RESOURCES
C:\USERS\JEREMY REAGAN\DOCUMENTS\VISUAL STUDIO 2010\PROJECTS\HL7LIB\HL7 ANALYST\OBJ\X86\DEBUG\HL7_ANALYST.FRMREPORTS.RESOURCES
C:\USERS\JEREMY REAGAN\DOCUMENTS\VISUAL STUDIO 2010\PROJECTS\HL7LIB\HL7 ANALYST\OBJ\X86\DEBUG\HL7_ANALYST.PROPERTIES.RESOURCES.RESOURCES
^C:\USERS\JEREMY REAGAN\DOCUMENTS\VISUAL STUDIO 2010\PROJECTS\HL7LIB\HL7 ANALYST\FRMABOUT.RESX|C:\USERS\JEREMY REAGAN\DOCUMENTS\VISUAL STUDIO 2010\PROJECTS\HL7LIB\HL7 ANALYST\FRMHELP.RESX|C:\USERS\JEREMY REAGAN\DOCUMENTS\VISUAL STUDIO 2010\PROJECTS\HL7LIB\HL7 ANALYST\FRMMAIN.RESX|C:\USERS\JEREMY REAGAN\DOCUMENTS\VISUAL STUDIO 2010\PROJECTS\HL7LIB\HL7 ANALYST\FRMOPTIONS.RESX|C:\USERS\JEREMY REAGAN\DOCUMENTS\VISUAL STUDIO 2010\PROJECTS\HL7LIB\HL7 ANALYST\FRMREPORTS.RESX|C:\USERS\JEREMY REAGAN\DOCUMENTS\VISUAL STUDIO 2010\PROJECTS\HL7LIB\HL7 ANALYST\PROPERTIES\RESOURCES.RESX
C:\USERS\JEREMY REAGAN\DOCUMENTS\VISUAL STUDIO 2010\PROJECTS\HL7LIB\HL7 ANALYST\OBJ\X86\DEBUG\HL7_ANALYST.FRMABOUT.RESOURCES
C:\USERS\JEREMY REAGAN\DOCUMENTS\VISUAL STUDIO 2010\PROJECTS\HL7LIB\HL7 ANALYST\OBJ\X86\DEBUG\HL7_ANALYST.FRMHELP.RESOURCES
C:\USERS\JEREMY REAGAN\DOCUMENTS\VISUAL STUDIO 2010\PROJECTS\HL7LIB\HL7 ANALYST\OBJ\X86\DEBUG\HL7_ANALYST.FRMMAIN.RESOURCES
C:\USERS\JEREMY REAGAN\DOCUMENTS\VISUAL STUDIO 2010\PROJECTS\HL7LIB\HL7 ANALYST\OBJ\X86\DEBUG\HL7_ANALYST.FRMOPTIONS.RESOURCES
C:\USERS\JEREMY REAGAN\DOCUMENTS\VISUAL STUDIO 2010\PROJECTS\HL7LIB\HL7 ANALYST\OBJ\X86\DEBUG\HL7_ANALYST.FRMREPORTS.RESOURCES
C:\USERS\JEREMY REAGAN\DOCUMENTS\VISUAL STUDIO 2010\PROJECTS\HL7LIB\HL7 ANALYST\OBJ\X86\DEBUG\HL7_ANALYST.PROPERTIES.RESOURCES.RESOURCES
^C:\USERS\JEREMY REAGAN\DOCUMENTS\VISUAL STUDIO 2010\PROJECTS\HL7LIB\HL7 ANALYST\FRMABOUT.RESX|C:\USERS\JEREMY REAGAN\DOCUMENTS\VISUAL STUDIO 2010\PROJECTS\HL7LIB\HL7 ANALYST\FRMHELP.RESX|C:\USERS\JEREMY REAGAN\DOCUMENTS\VISUAL STUDIO 2010\PROJECTS\HL7LIB\HL7 ANALYST\FRMMAIN.RESX|C:\USERS\JEREMY REAGAN\DOCUMENTS\VISUAL STUDIO 2010\PROJECTS\HL7LIB\HL7 ANALYST\FRMNEWREPORT.RESX|C:\USERS\JEREMY REAGAN\DOCUMENTS\VISUAL STUDIO 2010\PROJECTS\HL7LIB\HL7 ANALYST\FRMOPTIONS.RESX|C:\USERS\JEREMY REAGAN\DOCUMENTS\VISUAL STUDIO 2010\PROJECTS\HL7LIB\HL7 ANALYST\FRMREPORTS.RESX|C:\USERS\JEREMY REAGAN\DOCUMENTS\VISUAL STUDIO 2010\PROJECTS\HL7LIB\HL7 ANALYST\PROPERTIES\RESOURCES.RESX
C:\USERS\JEREMY REAGAN\DOCUMENTS\VISUAL STUDIO 2010\PROJECTS\HL7LIB\HL7 ANALYST\OBJ\X86\DEBUG\HL7_ANALYST.FRMABOUT.RESOURCES
C:\USERS\JEREMY REAGAN\DOCUMENTS\VISUAL STUDIO 2010\PROJECTS\HL7LIB\HL7 ANALYST\OBJ\X86\DEBUG\HL7_ANALYST.FRMHELP.RESOURCES
C:\USERS\JEREMY REAGAN\DOCUMENTS\VISUAL STUDIO 2010\PROJECTS\HL7LIB\HL7 ANALYST\OBJ\X86\DEBUG\HL7_ANALYST.FRMMAIN.RESOURCES
C:\USERS\JEREMY REAGAN\DOCUMENTS\VISUAL STUDIO 2010\PROJECTS\HL7LIB\HL7 ANALYST\OBJ\X86\DEBUG\HL7_ANALYST.FRMNEWREPORT.RESOURCES
C:\USERS\JEREMY REAGAN\DOCUMENTS\VISUAL STUDIO 2010\PROJECTS\HL7LIB\HL7 ANALYST\OBJ\X86\DEBUG\HL7_ANALYST.FRMOPTIONS.RESOURCES
C:\USERS\JEREMY REAGAN\DOCUMENTS\VISUAL STUDIO 2010\PROJECTS\HL7LIB\HL7 ANALYST\OBJ\X86\DEBUG\HL7_ANALYST.FRMREPORTS.RESOURCES
C:\USERS\JEREMY REAGAN\DOCUMENTS\VISUAL STUDIO 2010\PROJECTS\HL7LIB\HL7 ANALYST\OBJ\X86\DEBUG\HL7_ANALYST.PROPERTIES.RESOURCES.RESOURCES
^C:\USERS\JEREMY REAGAN\DOCUMENTS\VISUAL STUDIO 2010\PROJECTS\HL7LIB\HL7 ANALYST\FRMABOUT.RESX|C:\USERS\JEREMY REAGAN\DOCUMENTS\VISUAL STUDIO 2010\PROJECTS\HL7LIB\HL7 ANALYST\FRMHELP.RESX|C:\USERS\JEREMY REAGAN\DOCUMENTS\VISUAL STUDIO 2010\PROJECTS\HL7LIB\HL7 ANALYST\FRMMAIN.RESX|C:\USERS\JEREMY REAGAN\DOCUMENTS\VISUAL STUDIO 2010\PROJECTS\HL7LIB\HL7 ANALYST\FRMNEWREPORT.RESX|C:\USERS\JEREMY REAGAN\DOCUMENTS\VISUAL STUDIO 2010\PROJECTS\HL7LIB\HL7 ANALYST\FRMOPTIONS.RESX|C:\USERS\JEREMY REAGAN\DOCUMENTS\VISUAL STUDIO 2010\PROJECTS\HL7LIB\HL7 ANALYST\FRMREPORTS.RESX|C:\USERS\JEREMY REAGAN\DOCUMENTS\VISUAL STUDIO 2010\PROJECTS\HL7LIB\HL7 ANALYST\FRMSEGMENTS.RESX|C:\USERS\JEREMY REAGAN\DOCUMENTS\VISUAL STUDIO 2010\PROJECTS\HL7LIB\HL7 ANALYST\PROPERTIES\RESOURCES.RESX
C:\USERS\JEREMY REAGAN\DOCUMENTS\VISUAL STUDIO 2010\PROJECTS\HL7LIB\HL7 ANALYST\OBJ\X86\DEBUG\HL7_ANALYST.FRMABOUT.RESOURCES
C:\USERS\JEREMY REAGAN\DOCUMENTS\VISUAL STUDIO 2010\PROJECTS\HL7LIB\HL7 ANALYST\OBJ\X86\DEBUG\HL7_ANALYST.FRMHELP.RESOURCES
C:\USERS\JEREMY REAGAN\DOCUMENTS\VISUAL STUDIO 2010\PROJECTS\HL7LIB\HL7 ANALYST\OBJ\X86\DEBUG\HL7_ANALYST.FRMMAIN.RESOURCES
C:\USERS\JEREMY REAGAN\DOCUMENTS\VISUAL STUDIO 2010\PROJECTS\HL7LIB\HL7 ANALYST\OBJ\X86\DEBUG\HL7_ANALYST.FRMNEWREPORT.RESOURCES
C:\USERS\JEREMY REAGAN\DOCUMENTS\VISUAL STUDIO 2010\PROJECTS\HL7LIB\HL7 ANALYST\OBJ\X86\DEBUG\HL7_ANALYST.FRMOPTIONS.RESOURCES
C:\USERS\JEREMY REAGAN\DOCUMENTS\VISUAL STUDIO 2010\PROJECTS\HL7LIB\HL7 ANALYST\OBJ\X86\DEBUG\HL7_ANALYST.FRMREPORTS.RESOURCES
C:\USERS\JEREMY REAGAN\DOCUMENTS\VISUAL STUDIO 2010\PROJECTS\HL7LIB\HL7 ANALYST\OBJ\X86\DEBUG\HL7_ANALYST.FRMSEGMENTS.RESOURCES
C:\USERS\JEREMY REAGAN\DOCUMENTS\VISUAL STUDIO 2010\PROJECTS\HL7LIB\HL7 ANALYST\OBJ\X86\DEBUG\HL7_ANALYST.PROPERTIES.RESOURCES.RESOURCES
^C:\USERS\JEREMY REAGAN\DOCUMENTS\VISUAL STUDIO 2010\PROJECTS\HL7LIB\HL7 ANALYST\FRMABOUT.RESX|C:\USERS\JEREMY REAGAN\DOCUMENTS\VISUAL STUDIO 2010\PROJECTS\HL7LIB\HL7 ANALYST\FRMHELP.RESX|C:\USERS\JEREMY REAGAN\DOCUMENTS\VISUAL STUDIO 2010\PROJECTS\HL7LIB\HL7 ANALYST\FRMMAIN.RESX|C:\USERS\JEREMY REAGAN\DOCUMENTS\VISUAL STUDIO 2010\PROJECTS\HL7LIB\HL7 ANALYST\FRMNEWREPORT.RESX|C:\USERS\JEREMY REAGAN\DOCUMENTS\VISUAL STUDIO 2010\PROJECTS\HL7LIB\HL7 ANALYST\FRMOPTIONS.RESX|C:\USERS\JEREMY REAGAN\DOCUMENTS\VISUAL STUDIO 2010\PROJECTS\HL7LIB\HL7 ANALYST\FRMREPORTS.RESX|C:\USERS\JEREMY REAGAN\DOCUMENTS\VISUAL STUDIO 2010\PROJECTS\HL7LIB\HL7 ANALYST\FRMSEARCH.RESX|C:\USERS\JEREMY REAGAN\DOCUMENTS\VISUAL STUDIO 2010\PROJECTS\HL7LIB\HL7 ANALYST\FRMSEGMENTS.RESX|C:\USERS\JEREMY REAGAN\DOCUMENTS\VISUAL STUDIO 2010\PROJECTS\HL7LIB\HL7 ANALYST\PROPERTIES\RESOURCES.RESX
C:\USERS\JEREMY REAGAN\DOCUMENTS\VISUAL STUDIO 2010\PROJECTS\HL7LIB\HL7 ANALYST\OBJ\X86\DEBUG\HL7_ANALYST.PROPERTIES.RESOURCES.RESOURCES
C:\USERS\JEREMY REAGAN\DOCUMENTS\VISUAL STUDIO 2010\PROJECTS\HL7LIB\HL7 ANALYST\OBJ\X86\DEBUG\HL7_ANALYST.FRMABOUT.RESOURCES
C:\USERS\JEREMY REAGAN\DOCUMENTS\VISUAL STUDIO 2010\PROJECTS\HL7LIB\HL7 ANALYST\OBJ\X86\DEBUG\HL7_ANALYST.FRMHELP.RESOURCES
C:\USERS\JEREMY REAGAN\DOCUMENTS\VISUAL STUDIO 2010\PROJECTS\HL7LIB\HL7 ANALYST\OBJ\X86\DEBUG\HL7_ANALYST.FRMMAIN.RESOURCES
C:\USERS\JEREMY REAGAN\DOCUMENTS\VISUAL STUDIO 2010\PROJECTS\HL7LIB\HL7 ANALYST\OBJ\X86\DEBUG\HL7_ANALYST.FRMNEWREPORT.RESOURCES
C:\USERS\JEREMY REAGAN\DOCUMENTS\VISUAL STUDIO 2010\PROJECTS\HL7LIB\HL7 ANALYST\OBJ\X86\DEBUG\HL7_ANALYST.FRMOPTIONS.RESOURCES
C:\USERS\JEREMY REAGAN\DOCUMENTS\VISUAL STUDIO 2010\PROJECTS\HL7LIB\HL7 ANALYST\OBJ\X86\DEBUG\HL7_ANALYST.FRMREPORTS.RESOURCES
C:\USERS\JEREMY REAGAN\DOCUMENTS\VISUAL STUDIO 2010\PROJECTS\HL7LIB\HL7 ANALYST\OBJ\X86\DEBUG\HL7_ANALYST.FRMSEARCH.RESOURCES
C:\USERS\JEREMY REAGAN\DOCUMENTS\VISUAL STUDIO 2010\PROJECTS\HL7LIB\HL7 ANALYST\OBJ\X86\DEBUG\HL7_ANALYST.FRMSEGMENTS.RESOURCES
^C:\USERS\JEREMY REAGAN\DOCUMENTS\VISUAL STUDIO 2010\PROJECTS\HL7LIB\HL7 ANALYST\FRMABOUT.RESX|C:\USERS\JEREMY REAGAN\DOCUMENTS\VISUAL STUDIO 2010\PROJECTS\HL7LIB\HL7 ANALYST\FRMBUILDSEARCH.RESX|C:\USERS\JEREMY REAGAN\DOCUMENTS\VISUAL STUDIO 2010\PROJECTS\HL7LIB\HL7 ANALYST\FRMHELP.RESX|C:\USERS\JEREMY REAGAN\DOCUMENTS\VISUAL STUDIO 2010\PROJECTS\HL7LIB\HL7 ANALYST\FRMMAIN.RESX|C:\USERS\JEREMY REAGAN\DOCUMENTS\VISUAL STUDIO 2010\PROJECTS\HL7LIB\HL7 ANALYST\FRMNEWREPORT.RESX|C:\USERS\JEREMY REAGAN\DOCUMENTS\VISUAL STUDIO 2010\PROJECTS\HL7LIB\HL7 ANALYST\FRMOPTIONS.RESX|C:\USERS\JEREMY REAGAN\DOCUMENTS\VISUAL STUDIO 2010\PROJECTS\HL7LIB\HL7 ANALYST\FRMREPORTS.RESX|C:\USERS\JEREMY REAGAN\DOCUMENTS\VISUAL STUDIO 2010\PROJECTS\HL7LIB\HL7 ANALYST\FRMSEARCH.RESX|C:\USERS\JEREMY REAGAN\DOCUMENTS\VISUAL STUDIO 2010\PROJECTS\HL7LIB\HL7 ANALYST\FRMSEGMENTS.RESX|C:\USERS\JEREMY REAGAN\DOCUMENTS\VISUAL STUDIO 2010\PROJECTS\HL7LIB\HL7 ANALYST\PROPERTIES\RESOURCES.RESX
C:\USERS\JEREMY REAGAN\DOCUMENTS\VISUAL STUDIO 2010\PROJECTS\HL7LIB\HL7 ANALYST\OBJ\X86\DEBUG\HL7_ANALYST.FRMABOUT.RESOURCES
C:\USERS\JEREMY REAGAN\DOCUMENTS\VISUAL STUDIO 2010\PROJECTS\HL7LIB\HL7 ANALYST\OBJ\X86\DEBUG\HL7_ANALYST.FRMBUILDSEARCH.RESOURCES
C:\USERS\JEREMY REAGAN\DOCUMENTS\VISUAL STUDIO 2010\PROJECTS\HL7LIB\HL7 ANALYST\OBJ\X86\DEBUG\HL7_ANALYST.FRMHELP.RESOURCES
C:\USERS\JEREMY REAGAN\DOCUMENTS\VISUAL STUDIO 2010\PROJECTS\HL7LIB\HL7 ANALYST\OBJ\X86\DEBUG\HL7_ANALYST.FRMMAIN.RESOURCES
C:\USERS\JEREMY REAGAN\DOCUMENTS\VISUAL STUDIO 2010\PROJECTS\HL7LIB\HL7 ANALYST\OBJ\X86\DEBUG\HL7_ANALYST.FRMNEWREPORT.RESOURCES
C:\USERS\JEREMY REAGAN\DOCUMENTS\VISUAL STUDIO 2010\PROJECTS\HL7LIB\HL7 ANALYST\OBJ\X86\DEBUG\HL7_ANALYST.FRMOPTIONS.RESOURCES
C:\USERS\JEREMY REAGAN\DOCUMENTS\VISUAL STUDIO 2010\PROJECTS\HL7LIB\HL7 ANALYST\OBJ\X86\DEBUG\HL7_ANALYST.FRMREPORTS.RESOURCES
C:\USERS\JEREMY REAGAN\DOCUMENTS\VISUAL STUDIO 2010\PROJECTS\HL7LIB\HL7 ANALYST\OBJ\X86\DEBUG\HL7_ANALYST.FRMSEARCH.RESOURCES
C:\USERS\JEREMY REAGAN\DOCUMENTS\VISUAL STUDIO 2010\PROJECTS\HL7LIB\HL7 ANALYST\OBJ\X86\DEBUG\HL7_ANALYST.FRMSEGMENTS.RESOURCES
C:\USERS\JEREMY REAGAN\DOCUMENTS\VISUAL STUDIO 2010\PROJECTS\HL7LIB\HL7 ANALYST\OBJ\X86\DEBUG\HL7_ANALYST.PROPERTIES.RESOURCES.RESOURCES
^C:\USERS\JEREMY REAGAN\DOCUMENTS\VISUAL STUDIO 2010\PROJECTS\HL7LIB\HL7 ANALYST\FRMABOUT.RESX|C:\USERS\JEREMY REAGAN\DOCUMENTS\VISUAL STUDIO 2010\PROJECTS\HL7LIB\HL7 ANALYST\FRMBUILDSEARCH.RESX|C:\USERS\JEREMY REAGAN\DOCUMENTS\VISUAL STUDIO 2010\PROJECTS\HL7LIB\HL7 ANALYST\FRMFILTER.RESX|C:\USERS\JEREMY REAGAN\DOCUMENTS\VISUAL STUDIO 2010\PROJECTS\HL7LIB\HL7 ANALYST\FRMHELP.RESX|C:\USERS\JEREMY REAGAN\DOCUMENTS\VISUAL STUDIO 2010\PROJECTS\HL7LIB\HL7 ANALYST\FRMMAIN.RESX|C:\USERS\JEREMY REAGAN\DOCUMENTS\VISUAL STUDIO 2010\PROJECTS\HL7LIB\HL7 ANALYST\FRMNEWREPORT.RESX|C:\USERS\JEREMY REAGAN\DOCUMENTS\VISUAL STUDIO 2010\PROJECTS\HL7LIB\HL7 ANALYST\FRMOPTIONS.RESX|C:\USERS\JEREMY REAGAN\DOCUMENTS\VISUAL STUDIO 2010\PROJECTS\HL7LIB\HL7 ANALYST\FRMREPORTS.RESX|C:\USERS\JEREMY REAGAN\DOCUMENTS\VISUAL STUDIO 2010\PROJECTS\HL7LIB\HL7 ANALYST\FRMSEARCH.RESX|C:\USERS\JEREMY REAGAN\DOCUMENTS\VISUAL STUDIO 2010\PROJECTS\HL7LIB\HL7 ANALYST\FRMSEGMENTS.RESX|C:\USERS\JEREMY REAGAN\DOCUMENTS\VISUAL STUDIO 2010\PROJECTS\HL7LIB\HL7 ANALYST\PROPERTIES\RESOURCES.RESX
C:\USERS\JEREMY REAGAN\DOCUMENTS\VISUAL STUDIO 2010\PROJECTS\HL7LIB\HL7 ANALYST\OBJ\X86\DEBUG\HL7_ANALYST.FRMABOUT.RESOURCES
C:\USERS\JEREMY REAGAN\DOCUMENTS\VISUAL STUDIO 2010\PROJECTS\HL7LIB\HL7 ANALYST\OBJ\X86\DEBUG\HL7_ANALYST.FRMBUILDSEARCH.RESOURCES
C:\USERS\JEREMY REAGAN\DOCUMENTS\VISUAL STUDIO 2010\PROJECTS\HL7LIB\HL7 ANALYST\OBJ\X86\DEBUG\HL7_ANALYST.FRMFILTER.RESOURCES
C:\USERS\JEREMY REAGAN\DOCUMENTS\VISUAL STUDIO 2010\PROJECTS\HL7LIB\HL7 ANALYST\OBJ\X86\DEBUG\HL7_ANALYST.FRMHELP.RESOURCES
C:\USERS\JEREMY REAGAN\DOCUMENTS\VISUAL STUDIO 2010\PROJECTS\HL7LIB\HL7 ANALYST\OBJ\X86\DEBUG\HL7_ANALYST.FRMMAIN.RESOURCES
C:\USERS\JEREMY REAGAN\DOCUMENTS\VISUAL STUDIO 2010\PROJECTS\HL7LIB\HL7 ANALYST\OBJ\X86\DEBUG\HL7_ANALYST.FRMNEWREPORT.RESOURCES
C:\USERS\JEREMY REAGAN\DOCUMENTS\VISUAL STUDIO 2010\PROJECTS\HL7LIB\HL7 ANALYST\OBJ\X86\DEBUG\HL7_ANALYST.FRMOPTIONS.RESOURCES
C:\USERS\JEREMY REAGAN\DOCUMENTS\VISUAL STUDIO 2010\PROJECTS\HL7LIB\HL7 ANALYST\OBJ\X86\DEBUG\HL7_ANALYST.FRMREPORTS.RESOURCES
C:\USERS\JEREMY REAGAN\DOCUMENTS\VISUAL STUDIO 2010\PROJECTS\HL7LIB\HL7 ANALYST\OBJ\X86\DEBUG\HL7_ANALYST.FRMSEARCH.RESOURCES
C:\USERS\JEREMY REAGAN\DOCUMENTS\VISUAL STUDIO 2010\PROJECTS\HL7LIB\HL7 ANALYST\OBJ\X86\DEBUG\HL7_ANALYST.FRMSEGMENTS.RESOURCES
C:\USERS\JEREMY REAGAN\DOCUMENTS\VISUAL STUDIO 2010\PROJECTS\HL7LIB\HL7 ANALYST\OBJ\X86\DEBUG\HL7_ANALYST.PROPERTIES.RESOURCES.RESOURCES
^C:\USERS\JEREMY REAGAN\DOCUMENTS\VISUAL STUDIO 2010\PROJECTS\HL7LIB\HL7 ANALYST\FRMABOUT.RESX|C:\USERS\JEREMY REAGAN\DOCUMENTS\VISUAL STUDIO 2010\PROJECTS\HL7LIB\HL7 ANALYST\FRMBUILDSEARCH.RESX|C:\USERS\JEREMY REAGAN\DOCUMENTS\VISUAL STUDIO 2010\PROJECTS\HL7LIB\HL7 ANALYST\FRMFILTER.RESX|C:\USERS\JEREMY REAGAN\DOCUMENTS\VISUAL STUDIO 2010\PROJECTS\HL7LIB\HL7 ANALYST\FRMHELP.RESX|C:\USERS\JEREMY REAGAN\DOCUMENTS\VISUAL STUDIO 2010\PROJECTS\HL7LIB\HL7 ANALYST\FRMMAIN.RESX|C:\USERS\JEREMY REAGAN\DOCUMENTS\VISUAL STUDIO 2010\PROJECTS\HL7LIB\HL7 ANALYST\FRMMESSAGESTATS.RESX|C:\USERS\JEREMY REAGAN\DOCUMENTS\VISUAL STUDIO 2010\PROJECTS\HL7LIB\HL7 ANALYST\FRMNEWREPORT.RESX|C:\USERS\JEREMY REAGAN\DOCUMENTS\VISUAL STUDIO 2010\PROJECTS\HL7LIB\HL7 ANALYST\FRMOPTIONS.RESX|C:\USERS\JEREMY REAGAN\DOCUMENTS\VISUAL STUDIO 2010\PROJECTS\HL7LIB\HL7 ANALYST\FRMREPORTS.RESX|C:\USERS\JEREMY REAGAN\DOCUMENTS\VISUAL STUDIO 2010\PROJECTS\HL7LIB\HL7 ANALYST\FRMSEARCH.RESX|C:\USERS\JEREMY REAGAN\DOCUMENTS\VISUAL STUDIO 2010\PROJECTS\HL7LIB\HL7 ANALYST\FRMSEGMENTS.RESX|C:\USERS\JEREMY REAGAN\DOCUMENTS\VISUAL STUDIO 2010\PROJECTS\HL7LIB\HL7 ANALYST\PROPERTIES\RESOURCES.RESX
C:\USERS\JEREMY REAGAN\DOCUMENTS\VISUAL STUDIO 2010\PROJECTS\HL7LIB\HL7 ANALYST\OBJ\X86\DEBUG\HL7_ANALYST.FRMABOUT.RESOURCES
C:\USERS\JEREMY REAGAN\DOCUMENTS\VISUAL STUDIO 2010\PROJECTS\HL7LIB\HL7 ANALYST\OBJ\X86\DEBUG\HL7_ANALYST.FRMBUILDSEARCH.RESOURCES
C:\USERS\JEREMY REAGAN\DOCUMENTS\VISUAL STUDIO 2010\PROJECTS\HL7LIB\HL7 ANALYST\OBJ\X86\DEBUG\HL7_ANALYST.FRMFILTER.RESOURCES
C:\USERS\JEREMY REAGAN\DOCUMENTS\VISUAL STUDIO 2010\PROJECTS\HL7LIB\HL7 ANALYST\OBJ\X86\DEBUG\HL7_ANALYST.FRMHELP.RESOURCES
C:\USERS\JEREMY REAGAN\DOCUMENTS\VISUAL STUDIO 2010\PROJECTS\HL7LIB\HL7 ANALYST\OBJ\X86\DEBUG\HL7_ANALYST.FRMMAIN.RESOURCES
C:\USERS\JEREMY REAGAN\DOCUMENTS\VISUAL STUDIO 2010\PROJECTS\HL7LIB\HL7 ANALYST\OBJ\X86\DEBUG\HL7_ANALYST.FRMMESSAGESTATS.RESOURCES
C:\USERS\JEREMY REAGAN\DOCUMENTS\VISUAL STUDIO 2010\PROJECTS\HL7LIB\HL7 ANALYST\OBJ\X86\DEBUG\HL7_ANALYST.FRMNEWREPORT.RESOURCES
C:\USERS\JEREMY REAGAN\DOCUMENTS\VISUAL STUDIO 2010\PROJECTS\HL7LIB\HL7 ANALYST\OBJ\X86\DEBUG\HL7_ANALYST.FRMOPTIONS.RESOURCES
C:\USERS\JEREMY REAGAN\DOCUMENTS\VISUAL STUDIO 2010\PROJECTS\HL7LIB\HL7 ANALYST\OBJ\X86\DEBUG\HL7_ANALYST.FRMREPORTS.RESOURCES
C:\USERS\JEREMY REAGAN\DOCUMENTS\VISUAL STUDIO 2010\PROJECTS\HL7LIB\HL7 ANALYST\OBJ\X86\DEBUG\HL7_ANALYST.FRMSEARCH.RESOURCES
C:\USERS\JEREMY REAGAN\DOCUMENTS\VISUAL STUDIO 2010\PROJECTS\HL7LIB\HL7 ANALYST\OBJ\X86\DEBUG\HL7_ANALYST.FRMSEGMENTS.RESOURCES
C:\USERS\JEREMY REAGAN\DOCUMENTS\VISUAL STUDIO 2010\PROJECTS\HL7LIB\HL7 ANALYST\OBJ\X86\DEBUG\HL7_ANALYST.PROPERTIES.RESOURCES.RESOURCES
^C:\USERS\JEREMY REAGAN\DOCUMENTS\VISUAL STUDIO 2010\PROJECTS\HL7 ANALYST\HL7 ANALYST\FRMABOUT.RESX|C:\USERS\JEREMY REAGAN\DOCUMENTS\VISUAL STUDIO 2010\PROJECTS\HL7 ANALYST\HL7 ANALYST\FRMBUILDSEARCH.RESX|C:\USERS\JEREMY REAGAN\DOCUMENTS\VISUAL STUDIO 2010\PROJECTS\HL7 ANALYST\HL7 ANALYST\FRMFILTER.RESX|C:\USERS\JEREMY REAGAN\DOCUMENTS\VISUAL STUDIO 2010\PROJECTS\HL7 ANALYST\HL7 ANALYST\FRMHELP.RESX|C:\USERS\JEREMY REAGAN\DOCUMENTS\VISUAL STUDIO 2010\PROJECTS\HL7 ANALYST\HL7 ANALYST\FRMMAIN.RESX|C:\USERS\JEREMY REAGAN\DOCUMENTS\VISUAL STUDIO 2010\PROJECTS\HL7 ANALYST\HL7 ANALYST\FRMMESSAGESTATS.RESX|C:\USERS\JEREMY REAGAN\DOCUMENTS\VISUAL STUDIO 2010\PROJECTS\HL7 ANALYST\HL7 ANALYST\FRMNEWREPORT.RESX|C:\USERS\JEREMY REAGAN\DOCUMENTS\VISUAL STUDIO 2010\PROJECTS\HL7 ANALYST\HL7 ANALYST\FRMOPTIONS.RESX|C:\USERS\JEREMY REAGAN\DOCUMENTS\VISUAL STUDIO 2010\PROJECTS\HL7 ANALYST\HL7 ANALYST\FRMREPORTS.RESX|C:\USERS\JEREMY REAGAN\DOCUMENTS\VISUAL STUDIO 2010\PROJECTS\HL7 ANALYST\HL7 ANALYST\FRMSEARCH.RESX|C:\USERS\JEREMY REAGAN\DOCUMENTS\VISUAL STUDIO 2010\PROJECTS\HL7 ANALYST\HL7 ANALYST\FRMSEGMENTS.RESX|C:\USERS\JEREMY REAGAN\DOCUMENTS\VISUAL STUDIO 2010\PROJECTS\HL7 ANALYST\HL7 ANALYST\PROPERTIES\RESOURCES.RESX
C:\USERS\JEREMY REAGAN\DOCUMENTS\VISUAL STUDIO 2010\PROJECTS\HL7 ANALYST\HL7 ANALYST\OBJ\X86\DEBUG\HL7_ANALYST.PROPERTIES.RESOURCES.RESOURCES
C:\USERS\JEREMY REAGAN\DOCUMENTS\VISUAL STUDIO 2010\PROJECTS\HL7 ANALYST\HL7 ANALYST\OBJ\X86\DEBUG\HL7_ANALYST.FRMABOUT.RESOURCES
C:\USERS\JEREMY REAGAN\DOCUMENTS\VISUAL STUDIO 2010\PROJECTS\HL7 ANALYST\HL7 ANALYST\OBJ\X86\DEBUG\HL7_ANALYST.FRMBUILDSEARCH.RESOURCES
C:\USERS\JEREMY REAGAN\DOCUMENTS\VISUAL STUDIO 2010\PROJECTS\HL7 ANALYST\HL7 ANALYST\OBJ\X86\DEBUG\HL7_ANALYST.FRMFILTER.RESOURCES
C:\USERS\JEREMY REAGAN\DOCUMENTS\VISUAL STUDIO 2010\PROJECTS\HL7 ANALYST\HL7 ANALYST\OBJ\X86\DEBUG\HL7_ANALYST.FRMHELP.RESOURCES
C:\USERS\JEREMY REAGAN\DOCUMENTS\VISUAL STUDIO 2010\PROJECTS\HL7 ANALYST\HL7 ANALYST\OBJ\X86\DEBUG\HL7_ANALYST.FRMMAIN.RESOURCES
C:\USERS\JEREMY REAGAN\DOCUMENTS\VISUAL STUDIO 2010\PROJECTS\HL7 ANALYST\HL7 ANALYST\OBJ\X86\DEBUG\HL7_ANALYST.FRMMESSAGESTATS.RESOURCES
C:\USERS\JEREMY REAGAN\DOCUMENTS\VISUAL STUDIO 2010\PROJECTS\HL7 ANALYST\HL7 ANALYST\OBJ\X86\DEBUG\HL7_ANALYST.FRMNEWREPORT.RESOURCES
C:\USERS\JEREMY REAGAN\DOCUMENTS\VISUAL STUDIO 2010\PROJECTS\HL7 ANALYST\HL7 ANALYST\OBJ\X86\DEBUG\HL7_ANALYST.FRMOPTIONS.RESOURCES
C:\USERS\JEREMY REAGAN\DOCUMENTS\VISUAL STUDIO 2010\PROJECTS\HL7 ANALYST\HL7 ANALYST\OBJ\X86\DEBUG\HL7_ANALYST.FRMREPORTS.RESOURCES
C:\USERS\JEREMY REAGAN\DOCUMENTS\VISUAL STUDIO 2010\PROJECTS\HL7 ANALYST\HL7 ANALYST\OBJ\X86\DEBUG\HL7_ANALYST.FRMSEARCH.RESOURCES
C:\USERS\JEREMY REAGAN\DOCUMENTS\VISUAL STUDIO 2010\PROJECTS\HL7 ANALYST\HL7 ANALYST\OBJ\X86\DEBUG\HL7_ANALYST.FRMSEGMENTS.RESOURCES
^C:\USERS\JEREMY REAGAN\DOCUMENTS\VISUAL STUDIO 2010\PROJECTS\HL7 ANALYST\HL7 ANALYST\FRMABOUT.RESX|C:\USERS\JEREMY REAGAN\DOCUMENTS\VISUAL STUDIO 2010\PROJECTS\HL7 ANALYST\HL7 ANALYST\FRMBUILDSEARCH.RESX|C:\USERS\JEREMY REAGAN\DOCUMENTS\VISUAL STUDIO 2010\PROJECTS\HL7 ANALYST\HL7 ANALYST\FRMERRORREPORT.RESX|C:\USERS\JEREMY REAGAN\DOCUMENTS\VISUAL STUDIO 2010\PROJECTS\HL7 ANALYST\HL7 ANALYST\FRMFILTER.RESX|C:\USERS\JEREMY REAGAN\DOCUMENTS\VISUAL STUDIO 2010\PROJECTS\HL7 ANALYST\HL7 ANALYST\FRMHELP.RESX|C:\USERS\JEREMY REAGAN\DOCUMENTS\VISUAL STUDIO 2010\PROJECTS\HL7 ANALYST\HL7 ANALYST\FRMMAIN.RESX|C:\USERS\JEREMY REAGAN\DOCUMENTS\VISUAL STUDIO 2010\PROJECTS\HL7 ANALYST\HL7 ANALYST\FRMMESSAGESTATS.RESX|C:\USERS\JEREMY REAGAN\DOCUMENTS\VISUAL STUDIO 2010\PROJECTS\HL7 ANALYST\HL7 ANALYST\FRMNEWREPORT.RESX|C:\USERS\JEREMY REAGAN\DOCUMENTS\VISUAL STUDIO 2010\PROJECTS\HL7 ANALYST\HL7 ANALYST\FRMOPTIONS.RESX|C:\USERS\JEREMY REAGAN\DOCUMENTS\VISUAL STUDIO 2010\PROJECTS\HL7 ANALYST\HL7 ANALYST\FRMREPORTS.RESX|C:\USERS\JEREMY REAGAN\DOCUMENTS\VISUAL STUDIO 2010\PROJECTS\HL7 ANALYST\HL7 ANALYST\FRMSEARCH.RESX|C:\USERS\JEREMY REAGAN\DOCUMENTS\VISUAL STUDIO 2010\PROJECTS\HL7 ANALYST\HL7 ANALYST\FRMSEGMENTS.RESX|C:\USERS\JEREMY REAGAN\DOCUMENTS\VISUAL STUDIO 2010\PROJECTS\HL7 ANALYST\HL7 ANALYST\PROPERTIES\RESOURCES.RESX
C:\USERS\JEREMY REAGAN\DOCUMENTS\VISUAL STUDIO 2010\PROJECTS\HL7 ANALYST\HL7 ANALYST\OBJ\X86\DEBUG\HL7_ANALYST.FRMABOUT.RESOURCES
C:\USERS\JEREMY REAGAN\DOCUMENTS\VISUAL STUDIO 2010\PROJECTS\HL7 ANALYST\HL7 ANALYST\OBJ\X86\DEBUG\HL7_ANALYST.FRMBUILDSEARCH.RESOURCES
C:\USERS\JEREMY REAGAN\DOCUMENTS\VISUAL STUDIO 2010\PROJECTS\HL7 ANALYST\HL7 ANALYST\OBJ\X86\DEBUG\HL7_ANALYST.FRMERRORREPORT.RESOURCES
C:\USERS\JEREMY REAGAN\DOCUMENTS\VISUAL STUDIO 2010\PROJECTS\HL7 ANALYST\HL7 ANALYST\OBJ\X86\DEBUG\HL7_ANALYST.FRMFILTER.RESOURCES
C:\USERS\JEREMY REAGAN\DOCUMENTS\VISUAL STUDIO 2010\PROJECTS\HL7 ANALYST\HL7 ANALYST\OBJ\X86\DEBUG\HL7_ANALYST.FRMHELP.RESOURCES
C:\USERS\JEREMY REAGAN\DOCUMENTS\VISUAL STUDIO 2010\PROJECTS\HL7 ANALYST\HL7 ANALYST\OBJ\X86\DEBUG\HL7_ANALYST.FRMMAIN.RESOURCES
C:\USERS\JEREMY REAGAN\DOCUMENTS\VISUAL STUDIO 2010\PROJECTS\HL7 ANALYST\HL7 ANALYST\OBJ\X86\DEBUG\HL7_ANALYST.FRMMESSAGESTATS.RESOURCES
C:\USERS\JEREMY REAGAN\DOCUMENTS\VISUAL STUDIO 2010\PROJECTS\HL7 ANALYST\HL7 ANALYST\OBJ\X86\DEBUG\HL7_ANALYST.FRMNEWREPORT.RESOURCES
C:\USERS\JEREMY REAGAN\DOCUMENTS\VISUAL STUDIO 2010\PROJECTS\HL7 ANALYST\HL7 ANALYST\OBJ\X86\DEBUG\HL7_ANALYST.FRMOPTIONS.RESOURCES
C:\USERS\JEREMY REAGAN\DOCUMENTS\VISUAL STUDIO 2010\PROJECTS\HL7 ANALYST\HL7 ANALYST\OBJ\X86\DEBUG\HL7_ANALYST.FRMREPORTS.RESOURCES
C:\USERS\JEREMY REAGAN\DOCUMENTS\VISUAL STUDIO 2010\PROJECTS\HL7 ANALYST\HL7 ANALYST\OBJ\X86\DEBUG\HL7_ANALYST.FRMSEARCH.RESOURCES
C:\USERS\JEREMY REAGAN\DOCUMENTS\VISUAL STUDIO 2010\PROJECTS\HL7 ANALYST\HL7 ANALYST\OBJ\X86\DEBUG\HL7_ANALYST.FRMSEGMENTS.RESOURCES
C:\USERS\JEREMY REAGAN\DOCUMENTS\VISUAL STUDIO 2010\PROJECTS\HL7 ANALYST\HL7 ANALYST\OBJ\X86\DEBUG\HL7_ANALYST.PROPERTIES.RESOURCES.RESOURCES
^C:\USERS\JEREMY REAGAN\DOCUMENTS\VISUAL STUDIO 2010\PROJECTS\HL7 ANALYST\HL7 ANALYST\FRMABOUT.RESX|C:\USERS\JEREMY REAGAN\DOCUMENTS\VISUAL STUDIO 2010\PROJECTS\HL7 ANALYST\HL7 ANALYST\FRMBUILDSEARCH.RESX|C:\USERS\JEREMY REAGAN\DOCUMENTS\VISUAL STUDIO 2010\PROJECTS\HL7 ANALYST\HL7 ANALYST\FRMERRORREPORT.RESX|C:\USERS\JEREMY REAGAN\DOCUMENTS\VISUAL STUDIO 2010\PROJECTS\HL7 ANALYST\HL7 ANALYST\FRMFILTER.RESX|C:\USERS\JEREMY REAGAN\DOCUMENTS\VISUAL STUDIO 2010\PROJECTS\HL7 ANALYST\HL7 ANALYST\FRMMAIN.RESX|C:\USERS\JEREMY REAGAN\DOCUMENTS\VISUAL STUDIO 2010\PROJECTS\HL7 ANALYST\HL7 ANALYST\FRMMESSAGESTATS.RESX|C:\USERS\JEREMY REAGAN\DOCUMENTS\VISUAL STUDIO 2010\PROJECTS\HL7 ANALYST\HL7 ANALYST\FRMNEWREPORT.RESX|C:\USERS\JEREMY REAGAN\DOCUMENTS\VISUAL STUDIO 2010\PROJECTS\HL7 ANALYST\HL7 ANALYST\FRMOPTIONS.RESX|C:\USERS\JEREMY REAGAN\DOCUMENTS\VISUAL STUDIO 2010\PROJECTS\HL7 ANALYST\HL7 ANALYST\FRMREPORTS.RESX|C:\USERS\JEREMY REAGAN\DOCUMENTS\VISUAL STUDIO 2010\PROJECTS\HL7 ANALYST\HL7 ANALYST\FRMSEARCH.RESX|C:\USERS\JEREMY REAGAN\DOCUMENTS\VISUAL STUDIO 2010\PROJECTS\HL7 ANALYST\HL7 ANALYST\FRMSEGMENTS.RESX|C:\USERS\JEREMY REAGAN\DOCUMENTS\VISUAL STUDIO 2010\PROJECTS\HL7 ANALYST\HL7 ANALYST\PROPERTIES\RESOURCES.RESX
C:\USERS\JEREMY REAGAN\DOCUMENTS\VISUAL STUDIO 2010\PROJECTS\HL7 ANALYST\HL7 ANALYST\OBJ\X86\DEBUG\HL7_ANALYST.FRMABOUT.RESOURCES
C:\USERS\JEREMY REAGAN\DOCUMENTS\VISUAL STUDIO 2010\PROJECTS\HL7 ANALYST\HL7 ANALYST\OBJ\X86\DEBUG\HL7_ANALYST.FRMBUILDSEARCH.RESOURCES
C:\USERS\JEREMY REAGAN\DOCUMENTS\VISUAL STUDIO 2010\PROJECTS\HL7 ANALYST\HL7 ANALYST\OBJ\X86\DEBUG\HL7_ANALYST.FRMERRORREPORT.RESOURCES
C:\USERS\JEREMY REAGAN\DOCUMENTS\VISUAL STUDIO 2010\PROJECTS\HL7 ANALYST\HL7 ANALYST\OBJ\X86\DEBUG\HL7_ANALYST.FRMFILTER.RESOURCES
C:\USERS\JEREMY REAGAN\DOCUMENTS\VISUAL STUDIO 2010\PROJECTS\HL7 ANALYST\HL7 ANALYST\OBJ\X86\DEBUG\HL7_ANALYST.FRMMAIN.RESOURCES
C:\USERS\JEREMY REAGAN\DOCUMENTS\VISUAL STUDIO 2010\PROJECTS\HL7 ANALYST\HL7 ANALYST\OBJ\X86\DEBUG\HL7_ANALYST.FRMMESSAGESTATS.RESOURCES
C:\USERS\JEREMY REAGAN\DOCUMENTS\VISUAL STUDIO 2010\PROJECTS\HL7 ANALYST\HL7 ANALYST\OBJ\X86\DEBUG\HL7_ANALYST.FRMNEWREPORT.RESOURCES
C:\USERS\JEREMY REAGAN\DOCUMENTS\VISUAL STUDIO 2010\PROJECTS\HL7 ANALYST\HL7 ANALYST\OBJ\X86\DEBUG\HL7_ANALYST.FRMOPTIONS.RESOURCES
C:\USERS\JEREMY REAGAN\DOCUMENTS\VISUAL STUDIO 2010\PROJECTS\HL7 ANALYST\HL7 ANALYST\OBJ\X86\DEBUG\HL7_ANALYST.FRMREPORTS.RESOURCES
C:\USERS\JEREMY REAGAN\DOCUMENTS\VISUAL STUDIO 2010\PROJECTS\HL7 ANALYST\HL7 ANALYST\OBJ\X86\DEBUG\HL7_ANALYST.FRMSEARCH.RESOURCES
C:\USERS\JEREMY REAGAN\DOCUMENTS\VISUAL STUDIO 2010\PROJECTS\HL7 ANALYST\HL7 ANALYST\OBJ\X86\DEBUG\HL7_ANALYST.FRMSEGMENTS.RESOURCES
C:\USERS\JEREMY REAGAN\DOCUMENTS\VISUAL STUDIO 2010\PROJECTS\HL7 ANALYST\HL7 ANALYST\OBJ\X86\DEBUG\HL7_ANALYST.PROPERTIES.RESOURCES.RESOURCES
^C:\USERS\JEREMY REAGAN\DOCUMENTS\VISUAL STUDIO 2010\PROJECTS\HL7 ANALYST\HL7 ANALYST\FRMABOUT.RESX|C:\USERS\JEREMY REAGAN\DOCUMENTS\VISUAL STUDIO 2010\PROJECTS\HL7 ANALYST\HL7 ANALYST\FRMBUILDSEARCH.RESX|C:\USERS\JEREMY REAGAN\DOCUMENTS\VISUAL STUDIO 2010\PROJECTS\HL7 ANALYST\HL7 ANALYST\FRMEDITFIELD.RESX|C:\USERS\JEREMY REAGAN\DOCUMENTS\VISUAL STUDIO 2010\PROJECTS\HL7 ANALYST\HL7 ANALYST\FRMERRORREPORT.RESX|C:\USERS\JEREMY REAGAN\DOCUMENTS\VISUAL STUDIO 2010\PROJECTS\HL7 ANALYST\HL7 ANALYST\FRMFILTER.RESX|C:\USERS\JEREMY REAGAN\DOCUMENTS\VISUAL STUDIO 2010\PROJECTS\HL7 ANALYST\HL7 ANALYST\FRMMAIN.RESX|C:\USERS\JEREMY REAGAN\DOCUMENTS\VISUAL STUDIO 2010\PROJECTS\HL7 ANALYST\HL7 ANALYST\FRMMESSAGESTATS.RESX|C:\USERS\JEREMY REAGAN\DOCUMENTS\VISUAL STUDIO 2010\PROJECTS\HL7 ANALYST\HL7 ANALYST\FRMNEWREPORT.RESX|C:\USERS\JEREMY REAGAN\DOCUMENTS\VISUAL STUDIO 2010\PROJECTS\HL7 ANALYST\HL7 ANALYST\FRMOPTIONS.RESX|C:\USERS\JEREMY REAGAN\DOCUMENTS\VISUAL STUDIO 2010\PROJECTS\HL7 ANALYST\HL7 ANALYST\FRMREPORTS.RESX|C:\USERS\JEREMY REAGAN\DOCUMENTS\VISUAL STUDIO 2010\PROJECTS\HL7 ANALYST\HL7 ANALYST\FRMSEARCH.RESX|C:\USERS\JEREMY REAGAN\DOCUMENTS\VISUAL STUDIO 2010\PROJECTS\HL7 ANALYST\HL7 ANALYST\FRMSEGMENTS.RESX|C:\USERS\JEREMY REAGAN\DOCUMENTS\VISUAL STUDIO 2010\PROJECTS\HL7 ANALYST\HL7 ANALYST\PROPERTIES\RESOURCES.RESX
C:\USERS\JEREMY REAGAN\DOCUMENTS\VISUAL STUDIO 2010\PROJECTS\HL7 ANALYST\HL7 ANALYST\OBJ\X86\DEBUG\HL7_ANALYST.FRMABOUT.RESOURCES
C:\USERS\JEREMY REAGAN\DOCUMENTS\VISUAL STUDIO 2010\PROJECTS\HL7 ANALYST\HL7 ANALYST\OBJ\X86\DEBUG\HL7_ANALYST.FRMBUILDSEARCH.RESOURCES
C:\USERS\JEREMY REAGAN\DOCUMENTS\VISUAL STUDIO 2010\PROJECTS\HL7 ANALYST\HL7 ANALYST\OBJ\X86\DEBUG\HL7_ANALYST.FRMEDITFIELD.RESOURCES
C:\USERS\JEREMY REAGAN\DOCUMENTS\VISUAL STUDIO 2010\PROJECTS\HL7 ANALYST\HL7 ANALYST\OBJ\X86\DEBUG\HL7_ANALYST.FRMERRORREPORT.RESOURCES
C:\USERS\JEREMY REAGAN\DOCUMENTS\VISUAL STUDIO 2010\PROJECTS\HL7 ANALYST\HL7 ANALYST\OBJ\X86\DEBUG\HL7_ANALYST.FRMFILTER.RESOURCES
C:\USERS\JEREMY REAGAN\DOCUMENTS\VISUAL STUDIO 2010\PROJECTS\HL7 ANALYST\HL7 ANALYST\OBJ\X86\DEBUG\HL7_ANALYST.FRMMAIN.RESOURCES
C:\USERS\JEREMY REAGAN\DOCUMENTS\VISUAL STUDIO 2010\PROJECTS\HL7 ANALYST\HL7 ANALYST\OBJ\X86\DEBUG\HL7_ANALYST.FRMMESSAGESTATS.RESOURCES
C:\USERS\JEREMY REAGAN\DOCUMENTS\VISUAL STUDIO 2010\PROJECTS\HL7 ANALYST\HL7 ANALYST\OBJ\X86\DEBUG\HL7_ANALYST.FRMNEWREPORT.RESOURCES
C:\USERS\JEREMY REAGAN\DOCUMENTS\VISUAL STUDIO 2010\PROJECTS\HL7 ANALYST\HL7 ANALYST\OBJ\X86\DEBUG\HL7_ANALYST.FRMOPTIONS.RESOURCES
C:\USERS\JEREMY REAGAN\DOCUMENTS\VISUAL STUDIO 2010\PROJECTS\HL7 ANALYST\HL7 ANALYST\OBJ\X86\DEBUG\HL7_ANALYST.FRMREPORTS.RESOURCES
C:\USERS\JEREMY REAGAN\DOCUMENTS\VISUAL STUDIO 2010\PROJECTS\HL7 ANALYST\HL7 ANALYST\OBJ\X86\DEBUG\HL7_ANALYST.FRMSEARCH.RESOURCES
C:\USERS\JEREMY REAGAN\DOCUMENTS\VISUAL STUDIO 2010\PROJECTS\HL7 ANALYST\HL7 ANALYST\OBJ\X86\DEBUG\HL7_ANALYST.FRMSEGMENTS.RESOURCES
C:\USERS\JEREMY REAGAN\DOCUMENTS\VISUAL STUDIO 2010\PROJECTS\HL7 ANALYST\HL7 ANALYST\OBJ\X86\DEBUG\HL7_ANALYST.PROPERTIES.RESOURCES.RESOURCES
^C:\USERS\JEREMY REAGAN\DOCUMENTS\VISUAL STUDIO 2010\PROJECTS\HL7 ANALYST V2\HL7 ANALYST\FRMABOUT.RESX|C:\USERS\JEREMY REAGAN\DOCUMENTS\VISUAL STUDIO 2010\PROJECTS\HL7 ANALYST V2\HL7 ANALYST\FRMBUILDSEARCH.RESX|C:\USERS\JEREMY REAGAN\DOCUMENTS\VISUAL STUDIO 2010\PROJECTS\HL7 ANALYST V2\HL7 ANALYST\FRMEDITFIELD.RESX|C:\USERS\JEREMY REAGAN\DOCUMENTS\VISUAL STUDIO 2010\PROJECTS\HL7 ANALYST V2\HL7 ANALYST\FRMERRORREPORT.RESX|C:\USERS\JEREMY REAGAN\DOCUMENTS\VISUAL STUDIO 2010\PROJECTS\HL7 ANALYST V2\HL7 ANALYST\FRMFILTER.RESX|C:\USERS\JEREMY REAGAN\DOCUMENTS\VISUAL STUDIO 2010\PROJECTS\HL7 ANALYST V2\HL7 ANALYST\FRMMAIN.RESX|C:\USERS\JEREMY REAGAN\DOCUMENTS\VISUAL STUDIO 2010\PROJECTS\HL7 ANALYST V2\HL7 ANALYST\FRMMESSAGESTATS.RESX|C:\USERS\JEREMY REAGAN\DOCUMENTS\VISUAL STUDIO 2010\PROJECTS\HL7 ANALYST V2\HL7 ANALYST\FRMNEWREPORT.RESX|C:\USERS\JEREMY REAGAN\DOCUMENTS\VISUAL STUDIO 2010\PROJECTS\HL7 ANALYST V2\HL7 ANALYST\FRMOPTIONS.RESX|C:\USERS\JEREMY REAGAN\DOCUMENTS\VISUAL STUDIO 2010\PROJECTS\HL7 ANALYST V2\HL7 ANALYST\FRMREPORTS.RESX|C:\USERS\JEREMY REAGAN\DOCUMENTS\VISUAL STUDIO 2010\PROJECTS\HL7 ANALYST V2\HL7 ANALYST\FRMSEARCH.RESX|C:\USERS\JEREMY REAGAN\DOCUMENTS\VISUAL STUDIO 2010\PROJECTS\HL7 ANALYST V2\HL7 ANALYST\FRMSEGMENTS.RESX|C:\USERS\JEREMY REAGAN\DOCUMENTS\VISUAL STUDIO 2010\PROJECTS\HL7 ANALYST V2\HL7 ANALYST\PROPERTIES\RESOURCES.RESX
C:\USERS\JEREMY REAGAN\DOCUMENTS\VISUAL STUDIO 2010\PROJECTS\HL7 ANALYST V2\HL7 ANALYST\OBJ\X86\DEBUG\HL7_ANALYST.FRMABOUT.RESOURCES
C:\USERS\JEREMY REAGAN\DOCUMENTS\VISUAL STUDIO 2010\PROJECTS\HL7 ANALYST V2\HL7 ANALYST\OBJ\X86\DEBUG\HL7_ANALYST.FRMBUILDSEARCH.RESOURCES
C:\USERS\JEREMY REAGAN\DOCUMENTS\VISUAL STUDIO 2010\PROJECTS\HL7 ANALYST V2\HL7 ANALYST\OBJ\X86\DEBUG\HL7_ANALYST.FRMEDITFIELD.RESOURCES
C:\USERS\JEREMY REAGAN\DOCUMENTS\VISUAL STUDIO 2010\PROJECTS\HL7 ANALYST V2\HL7 ANALYST\OBJ\X86\DEBUG\HL7_ANALYST.FRMERRORREPORT.RESOURCES
C:\USERS\JEREMY REAGAN\DOCUMENTS\VISUAL STUDIO 2010\PROJECTS\HL7 ANALYST V2\HL7 ANALYST\OBJ\X86\DEBUG\HL7_ANALYST.FRMFILTER.RESOURCES
C:\USERS\JEREMY REAGAN\DOCUMENTS\VISUAL STUDIO 2010\PROJECTS\HL7 ANALYST V2\HL7 ANALYST\OBJ\X86\DEBUG\HL7_ANALYST.FRMMAIN.RESOURCES
C:\USERS\JEREMY REAGAN\DOCUMENTS\VISUAL STUDIO 2010\PROJECTS\HL7 ANALYST V2\HL7 ANALYST\OBJ\X86\DEBUG\HL7_ANALYST.FRMMESSAGESTATS.RESOURCES
C:\USERS\JEREMY REAGAN\DOCUMENTS\VISUAL STUDIO 2010\PROJECTS\HL7 ANALYST V2\HL7 ANALYST\OBJ\X86\DEBUG\HL7_ANALYST.FRMNEWREPORT.RESOURCES
C:\USERS\JEREMY REAGAN\DOCUMENTS\VISUAL STUDIO 2010\PROJECTS\HL7 ANALYST V2\HL7 ANALYST\OBJ\X86\DEBUG\HL7_ANALYST.FRMOPTIONS.RESOURCES
C:\USERS\JEREMY REAGAN\DOCUMENTS\VISUAL STUDIO 2010\PROJECTS\HL7 ANALYST V2\HL7 ANALYST\OBJ\X86\DEBUG\HL7_ANALYST.FRMREPORTS.RESOURCES
C:\USERS\JEREMY REAGAN\DOCUMENTS\VISUAL STUDIO 2010\PROJECTS\HL7 ANALYST V2\HL7 ANALYST\OBJ\X86\DEBUG\HL7_ANALYST.FRMSEARCH.RESOURCES
C:\USERS\JEREMY REAGAN\DOCUMENTS\VISUAL STUDIO 2010\PROJECTS\HL7 ANALYST V2\HL7 ANALYST\OBJ\X86\DEBUG\HL7_ANALYST.FRMSEGMENTS.RESOURCES
C:\USERS\JEREMY REAGAN\DOCUMENTS\VISUAL STUDIO 2010\PROJECTS\HL7 ANALYST V2\HL7 ANALYST\OBJ\X86\DEBUG\HL7_ANALYST.PROPERTIES.RESOURCES.RESOURCES
^C:\USERS\JEREMY REAGAN\DOCUMENTS\VISUAL STUDIO 2010\PROJECTS\HL7_ANALYST\HL7 ANALYST\FRMABOUT.RESX|C:\USERS\JEREMY REAGAN\DOCUMENTS\VISUAL STUDIO 2010\PROJECTS\HL7_ANALYST\HL7 ANALYST\FRMBUILDSEARCH.RESX|C:\USERS\JEREMY REAGAN\DOCUMENTS\VISUAL STUDIO 2010\PROJECTS\HL7_ANALYST\HL7 ANALYST\FRMEDITFIELD.RESX|C:\USERS\JEREMY REAGAN\DOCUMENTS\VISUAL STUDIO 2010\PROJECTS\HL7_ANALYST\HL7 ANALYST\FRMERRORREPORT.RESX|C:\USERS\JEREMY REAGAN\DOCUMENTS\VISUAL STUDIO 2010\PROJECTS\HL7_ANALYST\HL7 ANALYST\FRMFILTER.RESX|C:\USERS\JEREMY REAGAN\DOCUMENTS\VISUAL STUDIO 2010\PROJECTS\HL7_ANALYST\HL7 ANALYST\FRMMAIN.RESX|C:\USERS\JEREMY REAGAN\DOCUMENTS\VISUAL STUDIO 2010\PROJECTS\HL7_ANALYST\HL7 ANALYST\FRMMESSAGESTATS.RESX|C:\USERS\JEREMY REAGAN\DOCUMENTS\VISUAL STUDIO 2010\PROJECTS\HL7_ANALYST\HL7 ANALYST\FRMNEWREPORT.RESX|C:\USERS\JEREMY REAGAN\DOCUMENTS\VISUAL STUDIO 2010\PROJECTS\HL7_ANALYST\HL7 ANALYST\FRMOPTIONS.RESX|C:\USERS\JEREMY REAGAN\DOCUMENTS\VISUAL STUDIO 2010\PROJECTS\HL7_ANALYST\HL7 ANALYST\FRMREPORTS.RESX|C:\USERS\JEREMY REAGAN\DOCUMENTS\VISUAL STUDIO 2010\PROJECTS\HL7_ANALYST\HL7 ANALYST\FRMSEARCH.RESX|C:\USERS\JEREMY REAGAN\DOCUMENTS\VISUAL STUDIO 2010\PROJECTS\HL7_ANALYST\HL7 ANALYST\FRMSEGMENTS.RESX|C:\USERS\JEREMY REAGAN\DOCUMENTS\VISUAL STUDIO 2010\PROJECTS\HL7_ANALYST\HL7 ANALYST\PROPERTIES\RESOURCES.RESX
C:\USERS\JEREMY REAGAN\DOCUMENTS\VISUAL STUDIO 2010\PROJECTS\HL7_ANALYST\HL7 ANALYST\OBJ\X86\DEBUG\HL7_ANALYST.PROPERTIES.RESOURCES.RESOURCES
C:\USERS\JEREMY REAGAN\DOCUMENTS\VISUAL STUDIO 2010\PROJECTS\HL7_ANALYST\HL7 ANALYST\OBJ\X86\DEBUG\HL7_ANALYST.FRMABOUT.RESOURCES
C:\USERS\JEREMY REAGAN\DOCUMENTS\VISUAL STUDIO 2010\PROJECTS\HL7_ANALYST\HL7 ANALYST\OBJ\X86\DEBUG\HL7_ANALYST.FRMBUILDSEARCH.RESOURCES
C:\USERS\JEREMY REAGAN\DOCUMENTS\VISUAL STUDIO 2010\PROJECTS\HL7_ANALYST\HL7 ANALYST\OBJ\X86\DEBUG\HL7_ANALYST.FRMEDITFIELD.RESOURCES
C:\USERS\JEREMY REAGAN\DOCUMENTS\VISUAL STUDIO 2010\PROJECTS\HL7_ANALYST\HL7 ANALYST\OBJ\X86\DEBUG\HL7_ANALYST.FRMERRORREPORT.RESOURCES
C:\USERS\JEREMY REAGAN\DOCUMENTS\VISUAL STUDIO 2010\PROJECTS\HL7_ANALYST\HL7 ANALYST\OBJ\X86\DEBUG\HL7_ANALYST.FRMFILTER.RESOURCES
C:\USERS\JEREMY REAGAN\DOCUMENTS\VISUAL STUDIO 2010\PROJECTS\HL7_ANALYST\HL7 ANALYST\OBJ\X86\DEBUG\HL7_ANALYST.FRMMAIN.RESOURCES
C:\USERS\JEREMY REAGAN\DOCUMENTS\VISUAL STUDIO 2010\PROJECTS\HL7_ANALYST\HL7 ANALYST\OBJ\X86\DEBUG\HL7_ANALYST.FRMMESSAGESTATS.RESOURCES
C:\USERS\JEREMY REAGAN\DOCUMENTS\VISUAL STUDIO 2010\PROJECTS\HL7_ANALYST\HL7 ANALYST\OBJ\X86\DEBUG\HL7_ANALYST.FRMNEWREPORT.RESOURCES
C:\USERS\JEREMY REAGAN\DOCUMENTS\VISUAL STUDIO 2010\PROJECTS\HL7_ANALYST\HL7 ANALYST\OBJ\X86\DEBUG\HL7_ANALYST.FRMOPTIONS.RESOURCES
C:\USERS\JEREMY REAGAN\DOCUMENTS\VISUAL STUDIO 2010\PROJECTS\HL7_ANALYST\HL7 ANALYST\OBJ\X86\DEBUG\HL7_ANALYST.FRMREPORTS.RESOURCES
C:\USERS\JEREMY REAGAN\DOCUMENTS\VISUAL STUDIO 2010\PROJECTS\HL7_ANALYST\HL7 ANALYST\OBJ\X86\DEBUG\HL7_ANALYST.FRMSEARCH.RESOURCES
C:\USERS\JEREMY REAGAN\DOCUMENTS\VISUAL STUDIO 2010\PROJECTS\HL7_ANALYST\HL7 ANALYST\OBJ\X86\DEBUG\HL7_ANALYST.FRMSEGMENTS.RESOURCES
^C:\USERS\JEREMY REAGAN\DOCUMENTS\VISUAL STUDIO 2010\PROJECTS\HL7_ANALYST\HL7 ANALYST\FRMABOUT.RESX|C:\USERS\JEREMY REAGAN\DOCUMENTS\VISUAL STUDIO 2010\PROJECTS\HL7_ANALYST\HL7 ANALYST\FRMBUILDSEARCH.RESX|C:\USERS\JEREMY REAGAN\DOCUMENTS\VISUAL STUDIO 2010\PROJECTS\HL7_ANALYST\HL7 ANALYST\FRMEDITFIELD.RESX|C:\USERS\JEREMY REAGAN\DOCUMENTS\VISUAL STUDIO 2010\PROJECTS\HL7_ANALYST\HL7 ANALYST\FRMERRORREPORT.RESX|C:\USERS\JEREMY REAGAN\DOCUMENTS\VISUAL STUDIO 2010\PROJECTS\HL7_ANALYST\HL7 ANALYST\FRMFILTER.RESX|C:\USERS\JEREMY REAGAN\DOCUMENTS\VISUAL STUDIO 2010\PROJECTS\HL7_ANALYST\HL7 ANALYST\FRMFTPCONNECTION.RESX|C:\USERS\JEREMY REAGAN\DOCUMENTS\VISUAL STUDIO 2010\PROJECTS\HL7_ANALYST\HL7 ANALYST\FRMMAIN.RESX|C:\USERS\JEREMY REAGAN\DOCUMENTS\VISUAL STUDIO 2010\PROJECTS\HL7_ANALYST\HL7 ANALYST\FRMMESSAGESTATS.RESX|C:\USERS\JEREMY REAGAN\DOCUMENTS\VISUAL STUDIO 2010\PROJECTS\HL7_ANALYST\HL7 ANALYST\FRMNEWREPORT.RESX|C:\USERS\JEREMY REAGAN\DOCUMENTS\VISUAL STUDIO 2010\PROJECTS\HL7_ANALYST\HL7 ANALYST\FRMOPTIONS.RESX|C:\USERS\JEREMY REAGAN\DOCUMENTS\VISUAL STUDIO 2010\PROJECTS\HL7_ANALYST\HL7 ANALYST\FRMREPORTS.RESX|C:\USERS\JEREMY REAGAN\DOCUMENTS\VISUAL STUDIO 2010\PROJECTS\HL7_ANALYST\HL7 ANALYST\FRMSEARCH.RESX|C:\USERS\JEREMY REAGAN\DOCUMENTS\VISUAL STUDIO 2010\PROJECTS\HL7_ANALYST\HL7 ANALYST\FRMSEGMENTS.RESX|C:\USERS\JEREMY REAGAN\DOCUMENTS\VISUAL STUDIO 2010\PROJECTS\HL7_ANALYST\HL7 ANALYST\PROPERTIES\RESOURCES.RESX
C:\USERS\JEREMY REAGAN\DOCUMENTS\VISUAL STUDIO 2010\PROJECTS\HL7_ANALYST\HL7 ANALYST\OBJ\X86\DEBUG\HL7_ANALYST.FRMABOUT.RESOURCES
C:\USERS\JEREMY REAGAN\DOCUMENTS\VISUAL STUDIO 2010\PROJECTS\HL7_ANALYST\HL7 ANALYST\OBJ\X86\DEBUG\HL7_ANALYST.FRMBUILDSEARCH.RESOURCES
C:\USERS\JEREMY REAGAN\DOCUMENTS\VISUAL STUDIO 2010\PROJECTS\HL7_ANALYST\HL7 ANALYST\OBJ\X86\DEBUG\HL7_ANALYST.FRMEDITFIELD.RESOURCES
C:\USERS\JEREMY REAGAN\DOCUMENTS\VISUAL STUDIO 2010\PROJECTS\HL7_ANALYST\HL7 ANALYST\OBJ\X86\DEBUG\HL7_ANALYST.FRMERRORREPORT.RESOURCES
C:\USERS\JEREMY REAGAN\DOCUMENTS\VISUAL STUDIO 2010\PROJECTS\HL7_ANALYST\HL7 ANALYST\OBJ\X86\DEBUG\HL7_ANALYST.FRMFILTER.RESOURCES
C:\USERS\JEREMY REAGAN\DOCUMENTS\VISUAL STUDIO 2010\PROJECTS\HL7_ANALYST\HL7 ANALYST\OBJ\X86\DEBUG\HL7_ANALYST.FRMFTPCONNECTION.RESOURCES
C:\USERS\JEREMY REAGAN\DOCUMENTS\VISUAL STUDIO 2010\PROJECTS\HL7_ANALYST\HL7 ANALYST\OBJ\X86\DEBUG\HL7_ANALYST.FRMMAIN.RESOURCES
C:\USERS\JEREMY REAGAN\DOCUMENTS\VISUAL STUDIO 2010\PROJECTS\HL7_ANALYST\HL7 ANALYST\OBJ\X86\DEBUG\HL7_ANALYST.FRMMESSAGESTATS.RESOURCES
C:\USERS\JEREMY REAGAN\DOCUMENTS\VISUAL STUDIO 2010\PROJECTS\HL7_ANALYST\HL7 ANALYST\OBJ\X86\DEBUG\HL7_ANALYST.FRMNEWREPORT.RESOURCES
C:\USERS\JEREMY REAGAN\DOCUMENTS\VISUAL STUDIO 2010\PROJECTS\HL7_ANALYST\HL7 ANALYST\OBJ\X86\DEBUG\HL7_ANALYST.FRMOPTIONS.RESOURCES
C:\USERS\JEREMY REAGAN\DOCUMENTS\VISUAL STUDIO 2010\PROJECTS\HL7_ANALYST\HL7 ANALYST\OBJ\X86\DEBUG\HL7_ANALYST.FRMREPORTS.RESOURCES
C:\USERS\JEREMY REAGAN\DOCUMENTS\VISUAL STUDIO 2010\PROJECTS\HL7_ANALYST\HL7 ANALYST\OBJ\X86\DEBUG\HL7_ANALYST.FRMSEARCH.RESOURCES
C:\USERS\JEREMY REAGAN\DOCUMENTS\VISUAL STUDIO 2010\PROJECTS\HL7_ANALYST\HL7 ANALYST\OBJ\X86\DEBUG\HL7_ANALYST.FRMSEGMENTS.RESOURCES
C:\USERS\JEREMY REAGAN\DOCUMENTS\VISUAL STUDIO 2010\PROJECTS\HL7_ANALYST\HL7 ANALYST\OBJ\X86\DEBUG\HL7_ANALYST.PROPERTIES.RESOURCES.RESOURCES
^C:\USERS\JEREMY REAGAN\DOCUMENTS\VISUAL STUDIO 2010\PROJECTS\HL7_ANALYST\HL7 ANALYST\FRMABOUT.RESX|C:\USERS\JEREMY REAGAN\DOCUMENTS\VISUAL STUDIO 2010\PROJECTS\HL7_ANALYST\HL7 ANALYST\FRMBUILDSEARCH.RESX|C:\USERS\JEREMY REAGAN\DOCUMENTS\VISUAL STUDIO 2010\PROJECTS\HL7_ANALYST\HL7 ANALYST\FRMEDITFIELD.RESX|C:\USERS\JEREMY REAGAN\DOCUMENTS\VISUAL STUDIO 2010\PROJECTS\HL7_ANALYST\HL7 ANALYST\FRMERRORREPORT.RESX|C:\USERS\JEREMY REAGAN\DOCUMENTS\VISUAL STUDIO 2010\PROJECTS\HL7_ANALYST\HL7 ANALYST\FRMFILTER.RESX|C:\USERS\JEREMY REAGAN\DOCUMENTS\VISUAL STUDIO 2010\PROJECTS\HL7_ANALYST\HL7 ANALYST\FRMFTPCONNECTION.RESX|C:\USERS\JEREMY REAGAN\DOCUMENTS\VISUAL STUDIO 2010\PROJECTS\HL7_ANALYST\HL7 ANALYST\FRMLLP.RESX|C:\USERS\JEREMY REAGAN\DOCUMENTS\VISUAL STUDIO 2010\PROJECTS\HL7_ANALYST\HL7 ANALYST\FRMMAIN.RESX|C:\USERS\JEREMY REAGAN\DOCUMENTS\VISUAL STUDIO 2010\PROJECTS\HL7_ANALYST\HL7 ANALYST\FRMMESSAGESTATS.RESX|C:\USERS\JEREMY REAGAN\DOCUMENTS\VISUAL STUDIO 2010\PROJECTS\HL7_ANALYST\HL7 ANALYST\FRMNEWREPORT.RESX|C:\USERS\JEREMY REAGAN\DOCUMENTS\VISUAL STUDIO 2010\PROJECTS\HL7_ANALYST\HL7 ANALYST\FRMOPTIONS.RESX|C:\USERS\JEREMY REAGAN\DOCUMENTS\VISUAL STUDIO 2010\PROJECTS\HL7_ANALYST\HL7 ANALYST\FRMREPORTS.RESX|C:\USERS\JEREMY REAGAN\DOCUMENTS\VISUAL STUDIO 2010\PROJECTS\HL7_ANALYST\HL7 ANALYST\FRMSEARCH.RESX|C:\USERS\JEREMY REAGAN\DOCUMENTS\VISUAL STUDIO 2010\PROJECTS\HL7_ANALYST\HL7 ANALYST\FRMSEGMENTS.RESX|C:\USERS\JEREMY REAGAN\DOCUMENTS\VISUAL STUDIO 2010\PROJECTS\HL7_ANALYST\HL7 ANALYST\PROPERTIES\RESOURCES.RESX
C:\USERS\JEREMY REAGAN\DOCUMENTS\VISUAL STUDIO 2010\PROJECTS\HL7_ANALYST\HL7 ANALYST\OBJ\X86\DEBUG\HL7_ANALYST.FRMABOUT.RESOURCES
C:\USERS\JEREMY REAGAN\DOCUMENTS\VISUAL STUDIO 2010\PROJECTS\HL7_ANALYST\HL7 ANALYST\OBJ\X86\DEBUG\HL7_ANALYST.FRMBUILDSEARCH.RESOURCES
C:\USERS\JEREMY REAGAN\DOCUMENTS\VISUAL STUDIO 2010\PROJECTS\HL7_ANALYST\HL7 ANALYST\OBJ\X86\DEBUG\HL7_ANALYST.FRMEDITFIELD.RESOURCES
C:\USERS\JEREMY REAGAN\DOCUMENTS\VISUAL STUDIO 2010\PROJECTS\HL7_ANALYST\HL7 ANALYST\OBJ\X86\DEBUG\HL7_ANALYST.FRMERRORREPORT.RESOURCES
C:\USERS\JEREMY REAGAN\DOCUMENTS\VISUAL STUDIO 2010\PROJECTS\HL7_ANALYST\HL7 ANALYST\OBJ\X86\DEBUG\HL7_ANALYST.FRMFILTER.RESOURCES
C:\USERS\JEREMY REAGAN\DOCUMENTS\VISUAL STUDIO 2010\PROJECTS\HL7_ANALYST\HL7 ANALYST\OBJ\X86\DEBUG\HL7_ANALYST.FRMFTPCONNECTION.RESOURCES
C:\USERS\JEREMY REAGAN\DOCUMENTS\VISUAL STUDIO 2010\PROJECTS\HL7_ANALYST\HL7 ANALYST\OBJ\X86\DEBUG\HL7_ANALYST.FRMLLP.RESOURCES
C:\USERS\JEREMY REAGAN\DOCUMENTS\VISUAL STUDIO 2010\PROJECTS\HL7_ANALYST\HL7 ANALYST\OBJ\X86\DEBUG\HL7_ANALYST.FRMMAIN.RESOURCES
C:\USERS\JEREMY REAGAN\DOCUMENTS\VISUAL STUDIO 2010\PROJECTS\HL7_ANALYST\HL7 ANALYST\OBJ\X86\DEBUG\HL7_ANALYST.FRMMESSAGESTATS.RESOURCES
C:\USERS\JEREMY REAGAN\DOCUMENTS\VISUAL STUDIO 2010\PROJECTS\HL7_ANALYST\HL7 ANALYST\OBJ\X86\DEBUG\HL7_ANALYST.FRMNEWREPORT.RESOURCES
C:\USERS\JEREMY REAGAN\DOCUMENTS\VISUAL STUDIO 2010\PROJECTS\HL7_ANALYST\HL7 ANALYST\OBJ\X86\DEBUG\HL7_ANALYST.FRMOPTIONS.RESOURCES
C:\USERS\JEREMY REAGAN\DOCUMENTS\VISUAL STUDIO 2010\PROJECTS\HL7_ANALYST\HL7 ANALYST\OBJ\X86\DEBUG\HL7_ANALYST.FRMREPORTS.RESOURCES
C:\USERS\JEREMY REAGAN\DOCUMENTS\VISUAL STUDIO 2010\PROJECTS\HL7_ANALYST\HL7 ANALYST\OBJ\X86\DEBUG\HL7_ANALYST.FRMSEARCH.RESOURCES
C:\USERS\JEREMY REAGAN\DOCUMENTS\VISUAL STUDIO 2010\PROJECTS\HL7_ANALYST\HL7 ANALYST\OBJ\X86\DEBUG\HL7_ANALYST.FRMSEGMENTS.RESOURCES
C:\USERS\JEREMY REAGAN\DOCUMENTS\VISUAL STUDIO 2010\PROJECTS\HL7_ANALYST\HL7 ANALYST\OBJ\X86\DEBUG\HL7_ANALYST.PROPERTIES.RESOURCES.RESOURCES
^C:\USERS\JEREMY REAGAN\DOCUMENTS\VISUAL STUDIO 2010\PROJECTS\HL7_ANALYST\HL7 ANALYST\FRMABOUT.RESX|C:\USERS\JEREMY REAGAN\DOCUMENTS\VISUAL STUDIO 2010\PROJECTS\HL7_ANALYST\HL7 ANALYST\FRMBUILDSEARCH.RESX|C:\USERS\JEREMY REAGAN\DOCUMENTS\VISUAL STUDIO 2010\PROJECTS\HL7_ANALYST\HL7 ANALYST\FRMEDITFIELD.RESX|C:\USERS\JEREMY REAGAN\DOCUMENTS\VISUAL STUDIO 2010\PROJECTS\HL7_ANALYST\HL7 ANALYST\FRMERRORREPORT.RESX|C:\USERS\JEREMY REAGAN\DOCUMENTS\VISUAL STUDIO 2010\PROJECTS\HL7_ANALYST\HL7 ANALYST\FRMFILTER.RESX|C:\USERS\JEREMY REAGAN\DOCUMENTS\VISUAL STUDIO 2010\PROJECTS\HL7_ANALYST\HL7 ANALYST\FRMFTPCONNECTION.RESX|C:\USERS\JEREMY REAGAN\DOCUMENTS\VISUAL STUDIO 2010\PROJECTS\HL7_ANALYST\HL7 ANALYST\FRMLLP.RESX|C:\USERS\JEREMY REAGAN\DOCUMENTS\VISUAL STUDIO 2010\PROJECTS\HL7_ANALYST\HL7 ANALYST\FRMMAIN.RESX|C:\USERS\JEREMY REAGAN\DOCUMENTS\VISUAL STUDIO 2010\PROJECTS\HL7_ANALYST\HL7 ANALYST\FRMMESSAGESTATS.RESX|C:\USERS\JEREMY REAGAN\DOCUMENTS\VISUAL STUDIO 2010\PROJECTS\HL7_ANALYST\HL7 ANALYST\FRMNEWREPORT.RESX|C:\USERS\JEREMY REAGAN\DOCUMENTS\VISUAL STUDIO 2010\PROJECTS\HL7_ANALYST\HL7 ANALYST\FRMOPTIONS.RESX|C:\USERS\JEREMY REAGAN\DOCUMENTS\VISUAL STUDIO 2010\PROJECTS\HL7_ANALYST\HL7 ANALYST\FRMREPORTS.RESX|C:\USERS\JEREMY REAGAN\DOCUMENTS\VISUAL STUDIO 2010\PROJECTS\HL7_ANALYST\HL7 ANALYST\FRMSEARCH.RESX|C:\USERS\JEREMY REAGAN\DOCUMENTS\VISUAL STUDIO 2010\PROJECTS\HL7_ANALYST\HL7 ANALYST\FRMSEGMENTS.RESX|C:\USERS\JEREMY REAGAN\DOCUMENTS\VISUAL STUDIO 2010\PROJECTS\HL7_ANALYST\HL7 ANALYST\FRMTCPIPCONNECTION.RESX|C:\USERS\JEREMY REAGAN\DOCUMENTS\VISUAL STUDIO 2010\PROJECTS\HL7_ANALYST\HL7 ANALYST\PROPERTIES\RESOURCES.RESX
C:\USERS\JEREMY REAGAN\DOCUMENTS\VISUAL STUDIO 2010\PROJECTS\HL7_ANALYST\HL7 ANALYST\OBJ\X86\DEBUG\HL7_ANALYST.FRMABOUT.RESOURCES
C:\USERS\JEREMY REAGAN\DOCUMENTS\VISUAL STUDIO 2010\PROJECTS\HL7_ANALYST\HL7 ANALYST\OBJ\X86\DEBUG\HL7_ANALYST.FRMBUILDSEARCH.RESOURCES
C:\USERS\JEREMY REAGAN\DOCUMENTS\VISUAL STUDIO 2010\PROJECTS\HL7_ANALYST\HL7 ANALYST\OBJ\X86\DEBUG\HL7_ANALYST.FRMEDITFIELD.RESOURCES
C:\USERS\JEREMY REAGAN\DOCUMENTS\VISUAL STUDIO 2010\PROJECTS\HL7_ANALYST\HL7 ANALYST\OBJ\X86\DEBUG\HL7_ANALYST.FRMERRORREPORT.RESOURCES
C:\USERS\JEREMY REAGAN\DOCUMENTS\VISUAL STUDIO 2010\PROJECTS\HL7_ANALYST\HL7 ANALYST\OBJ\X86\DEBUG\HL7_ANALYST.FRMFILTER.RESOURCES
C:\USERS\JEREMY REAGAN\DOCUMENTS\VISUAL STUDIO 2010\PROJECTS\HL7_ANALYST\HL7 ANALYST\OBJ\X86\DEBUG\HL7_ANALYST.FRMFTPCONNECTION.RESOURCES
C:\USERS\JEREMY REAGAN\DOCUMENTS\VISUAL STUDIO 2010\PROJECTS\HL7_ANALYST\HL7 ANALYST\OBJ\X86\DEBUG\HL7_ANALYST.FRMLLP.RESOURCES
C:\USERS\JEREMY REAGAN\DOCUMENTS\VISUAL STUDIO 2010\PROJECTS\HL7_ANALYST\HL7 ANALYST\OBJ\X86\DEBUG\HL7_ANALYST.FRMMAIN.RESOURCES
C:\USERS\JEREMY REAGAN\DOCUMENTS\VISUAL STUDIO 2010\PROJECTS\HL7_ANALYST\HL7 ANALYST\OBJ\X86\DEBUG\HL7_ANALYST.FRMMESSAGESTATS.RESOURCES
C:\USERS\JEREMY REAGAN\DOCUMENTS\VISUAL STUDIO 2010\PROJECTS\HL7_ANALYST\HL7 ANALYST\OBJ\X86\DEBUG\HL7_ANALYST.FRMNEWREPORT.RESOURCES
C:\USERS\JEREMY REAGAN\DOCUMENTS\VISUAL STUDIO 2010\PROJECTS\HL7_ANALYST\HL7 ANALYST\OBJ\X86\DEBUG\HL7_ANALYST.FRMOPTIONS.RESOURCES
C:\USERS\JEREMY REAGAN\DOCUMENTS\VISUAL STUDIO 2010\PROJECTS\HL7_ANALYST\HL7 ANALYST\OBJ\X86\DEBUG\HL7_ANALYST.FRMREPORTS.RESOURCES
C:\USERS\JEREMY REAGAN\DOCUMENTS\VISUAL STUDIO 2010\PROJECTS\HL7_ANALYST\HL7 ANALYST\OBJ\X86\DEBUG\HL7_ANALYST.FRMSEARCH.RESOURCES
C:\USERS\JEREMY REAGAN\DOCUMENTS\VISUAL STUDIO 2010\PROJECTS\HL7_ANALYST\HL7 ANALYST\OBJ\X86\DEBUG\HL7_ANALYST.FRMSEGMENTS.RESOURCES
C:\USERS\JEREMY REAGAN\DOCUMENTS\VISUAL STUDIO 2010\PROJECTS\HL7_ANALYST\HL7 ANALYST\OBJ\X86\DEBUG\HL7_ANALYST.FRMTCPIPCONNECTION.RESOURCES
C:\USERS\JEREMY REAGAN\DOCUMENTS\VISUAL STUDIO 2010\PROJECTS\HL7_ANALYST\HL7 ANALYST\OBJ\X86\DEBUG\HL7_ANALYST.PROPERTIES.RESOURCES.RESOURCES
^C:\USERS\JEREMY REAGAN\DOCUMENTS\VISUAL STUDIO 2010\PROJECTS\HL7_ANALYST\HL7 ANALYST\FRMABOUT.RESX|C:\USERS\JEREMY REAGAN\DOCUMENTS\VISUAL STUDIO 2010\PROJECTS\HL7_ANALYST\HL7 ANALYST\FRMBUILDSEARCH.RESX|C:\USERS\JEREMY REAGAN\DOCUMENTS\VISUAL STUDIO 2010\PROJECTS\HL7_ANALYST\HL7 ANALYST\FRMEDITFIELD.RESX|C:\USERS\JEREMY REAGAN\DOCUMENTS\VISUAL STUDIO 2010\PROJECTS\HL7_ANALYST\HL7 ANALYST\FRMERRORREPORT.RESX|C:\USERS\JEREMY REAGAN\DOCUMENTS\VISUAL STUDIO 2010\PROJECTS\HL7_ANALYST\HL7 ANALYST\FRMFILTER.RESX|C:\USERS\JEREMY REAGAN\DOCUMENTS\VISUAL STUDIO 2010\PROJECTS\HL7_ANALYST\HL7 ANALYST\FRMFTPCONNECTION.RESX|C:\USERS\JEREMY REAGAN\DOCUMENTS\VISUAL STUDIO 2010\PROJECTS\HL7_ANALYST\HL7 ANALYST\FRMLLP.RESX|C:\USERS\JEREMY REAGAN\DOCUMENTS\VISUAL STUDIO 2010\PROJECTS\HL7_ANALYST\HL7 ANALYST\FRMMAIN.RESX|C:\USERS\JEREMY REAGAN\DOCUMENTS\VISUAL STUDIO 2010\PROJECTS\HL7_ANALYST\HL7 ANALYST\FRMMESSAGESTATS.RESX|C:\USERS\JEREMY REAGAN\DOCUMENTS\VISUAL STUDIO 2010\PROJECTS\HL7_ANALYST\HL7 ANALYST\FRMNEWREPORT.RESX|C:\USERS\JEREMY REAGAN\DOCUMENTS\VISUAL STUDIO 2010\PROJECTS\HL7_ANALYST\HL7 ANALYST\FRMOPTIONS.RESX|C:\USERS\JEREMY REAGAN\DOCUMENTS\VISUAL STUDIO 2010\PROJECTS\HL7_ANALYST\HL7 ANALYST\FRMREPORTS.RESX|C:\USERS\JEREMY REAGAN\DOCUMENTS\VISUAL STUDIO 2010\PROJECTS\HL7_ANALYST\HL7 ANALYST\FRMSEARCH.RESX|C:\USERS\JEREMY REAGAN\DOCUMENTS\VISUAL STUDIO 2010\PROJECTS\HL7_ANALYST\HL7 ANALYST\FRMSEGMENTS.RESX|C:\USERS\JEREMY REAGAN\DOCUMENTS\VISUAL STUDIO 2010\PROJECTS\HL7_ANALYST\HL7 ANALYST\FRMTCPIPCONNECTION.RESX|C:\USERS\JEREMY REAGAN\DOCUMENTS\VISUAL STUDIO 2010\PROJECTS\HL7_ANALYST\HL7 ANALYST\FRMUNIQUEVALUES.RESX|C:\USERS\JEREMY REAGAN\DOCUMENTS\VISUAL STUDIO 2010\PROJECTS\HL7_ANALYST\HL7 ANALYST\PROPERTIES\RESOURCES.RESX
C:\USERS\JEREMY REAGAN\DOCUMENTS\VISUAL STUDIO 2010\PROJECTS\HL7_ANALYST\HL7 ANALYST\OBJ\X86\DEBUG\HL7_ANALYST.FRMABOUT.RESOURCES
C:\USERS\JEREMY REAGAN\DOCUMENTS\VISUAL STUDIO 2010\PROJECTS\HL7_ANALYST\HL7 ANALYST\OBJ\X86\DEBUG\HL7_ANALYST.FRMBUILDSEARCH.RESOURCES
C:\USERS\JEREMY REAGAN\DOCUMENTS\VISUAL STUDIO 2010\PROJECTS\HL7_ANALYST\HL7 ANALYST\OBJ\X86\DEBUG\HL7_ANALYST.FRMEDITFIELD.RESOURCES
C:\USERS\JEREMY REAGAN\DOCUMENTS\VISUAL STUDIO 2010\PROJECTS\HL7_ANALYST\HL7 ANALYST\OBJ\X86\DEBUG\HL7_ANALYST.FRMERRORREPORT.RESOURCES
C:\USERS\JEREMY REAGAN\DOCUMENTS\VISUAL STUDIO 2010\PROJECTS\HL7_ANALYST\HL7 ANALYST\OBJ\X86\DEBUG\HL7_ANALYST.FRMFILTER.RESOURCES
C:\USERS\JEREMY REAGAN\DOCUMENTS\VISUAL STUDIO 2010\PROJECTS\HL7_ANALYST\HL7 ANALYST\OBJ\X86\DEBUG\HL7_ANALYST.FRMFTPCONNECTION.RESOURCES
C:\USERS\JEREMY REAGAN\DOCUMENTS\VISUAL STUDIO 2010\PROJECTS\HL7_ANALYST\HL7 ANALYST\OBJ\X86\DEBUG\HL7_ANALYST.FRMLLP.RESOURCES
C:\USERS\JEREMY REAGAN\DOCUMENTS\VISUAL STUDIO 2010\PROJECTS\HL7_ANALYST\HL7 ANALYST\OBJ\X86\DEBUG\HL7_ANALYST.FRMMAIN.RESOURCES
C:\USERS\JEREMY REAGAN\DOCUMENTS\VISUAL STUDIO 2010\PROJECTS\HL7_ANALYST\HL7 ANALYST\OBJ\X86\DEBUG\HL7_ANALYST.FRMMESSAGESTATS.RESOURCES
C:\USERS\JEREMY REAGAN\DOCUMENTS\VISUAL STUDIO 2010\PROJECTS\HL7_ANALYST\HL7 ANALYST\OBJ\X86\DEBUG\HL7_ANALYST.FRMNEWREPORT.RESOURCES
C:\USERS\JEREMY REAGAN\DOCUMENTS\VISUAL STUDIO 2010\PROJECTS\HL7_ANALYST\HL7 ANALYST\OBJ\X86\DEBUG\HL7_ANALYST.FRMOPTIONS.RESOURCES
C:\USERS\JEREMY REAGAN\DOCUMENTS\VISUAL STUDIO 2010\PROJECTS\HL7_ANALYST\HL7 ANALYST\OBJ\X86\DEBUG\HL7_ANALYST.FRMREPORTS.RESOURCES
C:\USERS\JEREMY REAGAN\DOCUMENTS\VISUAL STUDIO 2010\PROJECTS\HL7_ANALYST\HL7 ANALYST\OBJ\X86\DEBUG\HL7_ANALYST.FRMSEARCH.RESOURCES
C:\USERS\JEREMY REAGAN\DOCUMENTS\VISUAL STUDIO 2010\PROJECTS\HL7_ANALYST\HL7 ANALYST\OBJ\X86\DEBUG\HL7_ANALYST.FRMSEGMENTS.RESOURCES
C:\USERS\JEREMY REAGAN\DOCUMENTS\VISUAL STUDIO 2010\PROJECTS\HL7_ANALYST\HL7 ANALYST\OBJ\X86\DEBUG\HL7_ANALYST.FRMTCPIPCONNECTION.RESOURCES
C:\USERS\JEREMY REAGAN\DOCUMENTS\VISUAL STUDIO 2010\PROJECTS\HL7_ANALYST\HL7 ANALYST\OBJ\X86\DEBUG\HL7_ANALYST.FRMUNIQUEVALUES.RESOURCES
C:\USERS\JEREMY REAGAN\DOCUMENTS\VISUAL STUDIO 2010\PROJECTS\HL7_ANALYST\HL7 ANALYST\OBJ\X86\DEBUG\HL7_ANALYST.PROPERTIES.RESOURCES.RESOURCES
^C:\USERS\JEREMY REAGAN\DOCUMENTS\VISUAL STUDIO 2010\PROJECTS\HL7_ANALYST\HL7 ANALYST\FRMABOUT.RESX|C:\USERS\JEREMY REAGAN\DOCUMENTS\VISUAL STUDIO 2010\PROJECTS\HL7_ANALYST\HL7 ANALYST\FRMBUILDSEARCH.RESX|C:\USERS\JEREMY REAGAN\DOCUMENTS\VISUAL STUDIO 2010\PROJECTS\HL7_ANALYST\HL7 ANALYST\FRMDATABASECONNECTION.RESX|C:\USERS\JEREMY REAGAN\DOCUMENTS\VISUAL STUDIO 2010\PROJECTS\HL7_ANALYST\HL7 ANALYST\FRMDATABASELOGIN.RESX|C:\USERS\JEREMY REAGAN\DOCUMENTS\VISUAL STUDIO 2010\PROJECTS\HL7_ANALYST\HL7 ANALYST\FRMEDITFIELD.RESX|C:\USERS\JEREMY REAGAN\DOCUMENTS\VISUAL STUDIO 2010\PROJECTS\HL7_ANALYST\HL7 ANALYST\FRMERRORREPORT.RESX|C:\USERS\JEREMY REAGAN\DOCUMENTS\VISUAL STUDIO 2010\PROJECTS\HL7_ANALYST\HL7 ANALYST\FRMFILTER.RESX|C:\USERS\JEREMY REAGAN\DOCUMENTS\VISUAL STUDIO 2010\PROJECTS\HL7_ANALYST\HL7 ANALYST\FRMFTPCONNECTION.RESX|C:\USERS\JEREMY REAGAN\DOCUMENTS\VISUAL STUDIO 2010\PROJECTS\HL7_ANALYST\HL7 ANALYST\FRMLLP.RESX|C:\USERS\JEREMY REAGAN\DOCUMENTS\VISUAL STUDIO 2010\PROJECTS\HL7_ANALYST\HL7 ANALYST\FRMMAIN.RESX|C:\USERS\JEREMY REAGAN\DOCUMENTS\VISUAL STUDIO 2010\PROJECTS\HL7_ANALYST\HL7 ANALYST\FRMMESSAGESTATS.RESX|C:\USERS\JEREMY REAGAN\DOCUMENTS\VISUAL STUDIO 2010\PROJECTS\HL7_ANALYST\HL7 ANALYST\FRMNEWREPORT.RESX|C:\USERS\JEREMY REAGAN\DOCUMENTS\VISUAL STUDIO 2010\PROJECTS\HL7_ANALYST\HL7 ANALYST\FRMOPTIONS.RESX|C:\USERS\JEREMY REAGAN\DOCUMENTS\VISUAL STUDIO 2010\PROJECTS\HL7_ANALYST\HL7 ANALYST\FRMREPORTS.RESX|C:\USERS\JEREMY REAGAN\DOCUMENTS\VISUAL STUDIO 2010\PROJECTS\HL7_ANALYST\HL7 ANALYST\FRMSEARCH.RESX|C:\USERS\JEREMY REAGAN\DOCUMENTS\VISUAL STUDIO 2010\PROJECTS\HL7_ANALYST\HL7 ANALYST\FRMSEGMENTS.RESX|C:\USERS\JEREMY REAGAN\DOCUMENTS\VISUAL STUDIO 2010\PROJECTS\HL7_ANALYST\HL7 ANALYST\FRMTCPIPCONNECTION.RESX|C:\USERS\JEREMY REAGAN\DOCUMENTS\VISUAL STUDIO 2010\PROJECTS\HL7_ANALYST\HL7 ANALYST\FRMUNIQUEVALUES.RESX|C:\USERS\JEREMY REAGAN\DOCUMENTS\VISUAL STUDIO 2010\PROJECTS\HL7_ANALYST\HL7 ANALYST\PROPERTIES\RESOURCES.RESX
C:\USERS\JEREMY REAGAN\DOCUMENTS\VISUAL STUDIO 2010\PROJECTS\HL7_ANALYST\HL7 ANALYST\OBJ\X86\DEBUG\HL7_ANALYST.FRMABOUT.RESOURCES
C:\USERS\JEREMY REAGAN\DOCUMENTS\VISUAL STUDIO 2010\PROJECTS\HL7_ANALYST\HL7 ANALYST\OBJ\X86\DEBUG\HL7_ANALYST.FRMBUILDSEARCH.RESOURCES
C:\USERS\JEREMY REAGAN\DOCUMENTS\VISUAL STUDIO 2010\PROJECTS\HL7_ANALYST\HL7 ANALYST\OBJ\X86\DEBUG\HL7_ANALYST.FRMDATABASECONNECTION.RESOURCES
C:\USERS\JEREMY REAGAN\DOCUMENTS\VISUAL STUDIO 2010\PROJECTS\HL7_ANALYST\HL7 ANALYST\OBJ\X86\DEBUG\HL7_ANALYST.FRMDATABASELOGIN.RESOURCES
C:\USERS\JEREMY REAGAN\DOCUMENTS\VISUAL STUDIO 2010\PROJECTS\HL7_ANALYST\HL7 ANALYST\OBJ\X86\DEBUG\HL7_ANALYST.FRMEDITFIELD.RESOURCES
C:\USERS\JEREMY REAGAN\DOCUMENTS\VISUAL STUDIO 2010\PROJECTS\HL7_ANALYST\HL7 ANALYST\OBJ\X86\DEBUG\HL7_ANALYST.FRMERRORREPORT.RESOURCES
C:\USERS\JEREMY REAGAN\DOCUMENTS\VISUAL STUDIO 2010\PROJECTS\HL7_ANALYST\HL7 ANALYST\OBJ\X86\DEBUG\HL7_ANALYST.FRMFILTER.RESOURCES
C:\USERS\JEREMY REAGAN\DOCUMENTS\VISUAL STUDIO 2010\PROJECTS\HL7_ANALYST\HL7 ANALYST\OBJ\X86\DEBUG\HL7_ANALYST.FRMFTPCONNECTION.RESOURCES
C:\USERS\JEREMY REAGAN\DOCUMENTS\VISUAL STUDIO 2010\PROJECTS\HL7_ANALYST\HL7 ANALYST\OBJ\X86\DEBUG\HL7_ANALYST.FRMLLP.RESOURCES
C:\USERS\JEREMY REAGAN\DOCUMENTS\VISUAL STUDIO 2010\PROJECTS\HL7_ANALYST\HL7 ANALYST\OBJ\X86\DEBUG\HL7_ANALYST.FRMMAIN.RESOURCES
C:\USERS\JEREMY REAGAN\DOCUMENTS\VISUAL STUDIO 2010\PROJECTS\HL7_ANALYST\HL7 ANALYST\OBJ\X86\DEBUG\HL7_ANALYST.FRMMESSAGESTATS.RESOURCES
C:\USERS\JEREMY REAGAN\DOCUMENTS\VISUAL STUDIO 2010\PROJECTS\HL7_ANALYST\HL7 ANALYST\OBJ\X86\DEBUG\HL7_ANALYST.FRMNEWREPORT.RESOURCES
C:\USERS\JEREMY REAGAN\DOCUMENTS\VISUAL STUDIO 2010\PROJECTS\HL7_ANALYST\HL7 ANALYST\OBJ\X86\DEBUG\HL7_ANALYST.FRMOPTIONS.RESOURCES
C:\USERS\JEREMY REAGAN\DOCUMENTS\VISUAL STUDIO 2010\PROJECTS\HL7_ANALYST\HL7 ANALYST\OBJ\X86\DEBUG\HL7_ANALYST.FRMREPORTS.RESOURCES
C:\USERS\JEREMY REAGAN\DOCUMENTS\VISUAL STUDIO 2010\PROJECTS\HL7_ANALYST\HL7 ANALYST\OBJ\X86\DEBUG\HL7_ANALYST.FRMSEARCH.RESOURCES
C:\USERS\JEREMY REAGAN\DOCUMENTS\VISUAL STUDIO 2010\PROJECTS\HL7_ANALYST\HL7 ANALYST\OBJ\X86\DEBUG\HL7_ANALYST.FRMSEGMENTS.RESOURCES
C:\USERS\JEREMY REAGAN\DOCUMENTS\VISUAL STUDIO 2010\PROJECTS\HL7_ANALYST\HL7 ANALYST\OBJ\X86\DEBUG\HL7_ANALYST.FRMTCPIPCONNECTION.RESOURCES
C:\USERS\JEREMY REAGAN\DOCUMENTS\VISUAL STUDIO 2010\PROJECTS\HL7_ANALYST\HL7 ANALYST\OBJ\X86\DEBUG\HL7_ANALYST.FRMUNIQUEVALUES.RESOURCES
C:\USERS\JEREMY REAGAN\DOCUMENTS\VISUAL STUDIO 2010\PROJECTS\HL7_ANALYST\HL7 ANALYST\OBJ\X86\DEBUG\HL7_ANALYST.PROPERTIES.RESOURCES.RESOURCES
^C:\USERS\JEREMY REAGAN\DOCUMENTS\VISUAL STUDIO 2010\PROJECTS\HL7_ANALYST\HL7 ANALYST\FRMABOUT.RESX|C:\USERS\JEREMY REAGAN\DOCUMENTS\VISUAL STUDIO 2010\PROJECTS\HL7_ANALYST\HL7 ANALYST\FRMBUILDSEARCH.RESX|C:\USERS\JEREMY REAGAN\DOCUMENTS\VISUAL STUDIO 2010\PROJECTS\HL7_ANALYST\HL7 ANALYST\FRMDATABASECONNECTION.RESX|C:\USERS\JEREMY REAGAN\DOCUMENTS\VISUAL STUDIO 2010\PROJECTS\HL7_ANALYST\HL7 ANALYST\FRMDATABASELOGIN.RESX|C:\USERS\JEREMY REAGAN\DOCUMENTS\VISUAL STUDIO 2010\PROJECTS\HL7_ANALYST\HL7 ANALYST\FRMEDITFIELD.RESX|C:\USERS\JEREMY REAGAN\DOCUMENTS\VISUAL STUDIO 2010\PROJECTS\HL7_ANALYST\HL7 ANALYST\FRMERRORREPORT.RESX|C:\USERS\JEREMY REAGAN\DOCUMENTS\VISUAL STUDIO 2010\PROJECTS\HL7_ANALYST\HL7 ANALYST\FRMFILTER.RESX|C:\USERS\JEREMY REAGAN\DOCUMENTS\VISUAL STUDIO 2010\PROJECTS\HL7_ANALYST\HL7 ANALYST\FRMFTPCONNECTION.RESX|C:\USERS\JEREMY REAGAN\DOCUMENTS\VISUAL STUDIO 2010\PROJECTS\HL7_ANALYST\HL7 ANALYST\FRMHL7STANDARD.RESX|C:\USERS\JEREMY REAGAN\DOCUMENTS\VISUAL STUDIO 2010\PROJECTS\HL7_ANALYST\HL7 ANALYST\FRMLLP.RESX|C:\USERS\JEREMY REAGAN\DOCUMENTS\VISUAL STUDIO 2010\PROJECTS\HL7_ANALYST\HL7 ANALYST\FRMMAIN.RESX|C:\USERS\JEREMY REAGAN\DOCUMENTS\VISUAL STUDIO 2010\PROJECTS\HL7_ANALYST\HL7 ANALYST\FRMMESSAGESTATS.RESX|C:\USERS\JEREMY REAGAN\DOCUMENTS\VISUAL STUDIO 2010\PROJECTS\HL7_ANALYST\HL7 ANALYST\FRMNEWREPORT.RESX|C:\USERS\JEREMY REAGAN\DOCUMENTS\VISUAL STUDIO 2010\PROJECTS\HL7_ANALYST\HL7 ANALYST\FRMOPTIONS.RESX|C:\USERS\JEREMY REAGAN\DOCUMENTS\VISUAL STUDIO 2010\PROJECTS\HL7_ANALYST\HL7 ANALYST\FRMREPORTS.RESX|C:\USERS\JEREMY REAGAN\DOCUMENTS\VISUAL STUDIO 2010\PROJECTS\HL7_ANALYST\HL7 ANALYST\FRMSEARCH.RESX|C:\USERS\JEREMY REAGAN\DOCUMENTS\VISUAL STUDIO 2010\PROJECTS\HL7_ANALYST\HL7 ANALYST\FRMSEGMENTS.RESX|C:\USERS\JEREMY REAGAN\DOCUMENTS\VISUAL STUDIO 2010\PROJECTS\HL7_ANALYST\HL7 ANALYST\FRMTCPIPCONNECTION.RESX|C:\USERS\JEREMY REAGAN\DOCUMENTS\VISUAL STUDIO 2010\PROJECTS\HL7_ANALYST\HL7 ANALYST\FRMUNIQUEVALUES.RESX|C:\USERS\JEREMY REAGAN\DOCUMENTS\VISUAL STUDIO 2010\PROJECTS\HL7_ANALYST\HL7 ANALYST\PROPERTIES\RESOURCES.RESX
C:\USERS\JEREMY REAGAN\DOCUMENTS\VISUAL STUDIO 2010\PROJECTS\HL7_ANALYST\HL7 ANALYST\OBJ\X86\DEBUG\HL7_ANALYST.FRMABOUT.RESOURCES
C:\USERS\JEREMY REAGAN\DOCUMENTS\VISUAL STUDIO 2010\PROJECTS\HL7_ANALYST\HL7 ANALYST\OBJ\X86\DEBUG\HL7_ANALYST.FRMBUILDSEARCH.RESOURCES
C:\USERS\JEREMY REAGAN\DOCUMENTS\VISUAL STUDIO 2010\PROJECTS\HL7_ANALYST\HL7 ANALYST\OBJ\X86\DEBUG\HL7_ANALYST.FRMDATABASECONNECTION.RESOURCES
C:\USERS\JEREMY REAGAN\DOCUMENTS\VISUAL STUDIO 2010\PROJECTS\HL7_ANALYST\HL7 ANALYST\OBJ\X86\DEBUG\HL7_ANALYST.FRMDATABASELOGIN.RESOURCES
C:\USERS\JEREMY REAGAN\DOCUMENTS\VISUAL STUDIO 2010\PROJECTS\HL7_ANALYST\HL7 ANALYST\OBJ\X86\DEBUG\HL7_ANALYST.FRMEDITFIELD.RESOURCES
C:\USERS\JEREMY REAGAN\DOCUMENTS\VISUAL STUDIO 2010\PROJECTS\HL7_ANALYST\HL7 ANALYST\OBJ\X86\DEBUG\HL7_ANALYST.FRMERRORREPORT.RESOURCES
C:\USERS\JEREMY REAGAN\DOCUMENTS\VISUAL STUDIO 2010\PROJECTS\HL7_ANALYST\HL7 ANALYST\OBJ\X86\DEBUG\HL7_ANALYST.FRMFILTER.RESOURCES
C:\USERS\JEREMY REAGAN\DOCUMENTS\VISUAL STUDIO 2010\PROJECTS\HL7_ANALYST\HL7 ANALYST\OBJ\X86\DEBUG\HL7_ANALYST.FRMFTPCONNECTION.RESOURCES
C:\USERS\JEREMY REAGAN\DOCUMENTS\VISUAL STUDIO 2010\PROJECTS\HL7_ANALYST\HL7 ANALYST\OBJ\X86\DEBUG\HL7_ANALYST.FRMHL7STANDARD.RESOURCES
C:\USERS\JEREMY REAGAN\DOCUMENTS\VISUAL STUDIO 2010\PROJECTS\HL7_ANALYST\HL7 ANALYST\OBJ\X86\DEBUG\HL7_ANALYST.FRMLLP.RESOURCES
C:\USERS\JEREMY REAGAN\DOCUMENTS\VISUAL STUDIO 2010\PROJECTS\HL7_ANALYST\HL7 ANALYST\OBJ\X86\DEBUG\HL7_ANALYST.FRMMAIN.RESOURCES
C:\USERS\JEREMY REAGAN\DOCUMENTS\VISUAL STUDIO 2010\PROJECTS\HL7_ANALYST\HL7 ANALYST\OBJ\X86\DEBUG\HL7_ANALYST.FRMMESSAGESTATS.RESOURCES
C:\USERS\JEREMY REAGAN\DOCUMENTS\VISUAL STUDIO 2010\PROJECTS\HL7_ANALYST\HL7 ANALYST\OBJ\X86\DEBUG\HL7_ANALYST.FRMNEWREPORT.RESOURCES
C:\USERS\JEREMY REAGAN\DOCUMENTS\VISUAL STUDIO 2010\PROJECTS\HL7_ANALYST\HL7 ANALYST\OBJ\X86\DEBUG\HL7_ANALYST.FRMOPTIONS.RESOURCES
C:\USERS\JEREMY REAGAN\DOCUMENTS\VISUAL STUDIO 2010\PROJECTS\HL7_ANALYST\HL7 ANALYST\OBJ\X86\DEBUG\HL7_ANALYST.FRMREPORTS.RESOURCES
C:\USERS\JEREMY REAGAN\DOCUMENTS\VISUAL STUDIO 2010\PROJECTS\HL7_ANALYST\HL7 ANALYST\OBJ\X86\DEBUG\HL7_ANALYST.FRMSEARCH.RESOURCES
C:\USERS\JEREMY REAGAN\DOCUMENTS\VISUAL STUDIO 2010\PROJECTS\HL7_ANALYST\HL7 ANALYST\OBJ\X86\DEBUG\HL7_ANALYST.FRMSEGMENTS.RESOURCES
C:\USERS\JEREMY REAGAN\DOCUMENTS\VISUAL STUDIO 2010\PROJECTS\HL7_ANALYST\HL7 ANALYST\OBJ\X86\DEBUG\HL7_ANALYST.FRMTCPIPCONNECTION.RESOURCES
C:\USERS\JEREMY REAGAN\DOCUMENTS\VISUAL STUDIO 2010\PROJECTS\HL7_ANALYST\HL7 ANALYST\OBJ\X86\DEBUG\HL7_ANALYST.FRMUNIQUEVALUES.RESOURCES
C:\USERS\JEREMY REAGAN\DOCUMENTS\VISUAL STUDIO 2010\PROJECTS\HL7_ANALYST\HL7 ANALYST\OBJ\X86\DEBUG\HL7_ANALYST.PROPERTIES.RESOURCES.RESOURCES
^C:\USERS\JEREMY REAGAN\DOCUMENTS\VISUAL STUDIO 2010\PROJECTS\HL7 ANALYST\HL7 ANALYST\FRMABOUT.RESX|C:\USERS\JEREMY REAGAN\DOCUMENTS\VISUAL STUDIO 2010\PROJECTS\HL7 ANALYST\HL7 ANALYST\FRMBUILDSEARCH.RESX|C:\USERS\JEREMY REAGAN\DOCUMENTS\VISUAL STUDIO 2010\PROJECTS\HL7 ANALYST\HL7 ANALYST\FRMDATABASECONNECTION.RESX|C:\USERS\JEREMY REAGAN\DOCUMENTS\VISUAL STUDIO 2010\PROJECTS\HL7 ANALYST\HL7 ANALYST\FRMDATABASELOGIN.RESX|C:\USERS\JEREMY REAGAN\DOCUMENTS\VISUAL STUDIO 2010\PROJECTS\HL7 ANALYST\HL7 ANALYST\FRMEDITFIELD.RESX|C:\USERS\JEREMY REAGAN\DOCUMENTS\VISUAL STUDIO 2010\PROJECTS\HL7 ANALYST\HL7 ANALYST\FRMERRORREPORT.RESX|C:\USERS\JEREMY REAGAN\DOCUMENTS\VISUAL STUDIO 2010\PROJECTS\HL7 ANALYST\HL7 ANALYST\FRMFILTER.RESX|C:\USERS\JEREMY REAGAN\DOCUMENTS\VISUAL STUDIO 2010\PROJECTS\HL7 ANALYST\HL7 ANALYST\FRMFTPCONNECTION.RESX|C:\USERS\JEREMY REAGAN\DOCUMENTS\VISUAL STUDIO 2010\PROJECTS\HL7 ANALYST\HL7 ANALYST\FRMLLP.RESX|C:\USERS\JEREMY REAGAN\DOCUMENTS\VISUAL STUDIO 2010\PROJECTS\HL7 ANALYST\HL7 ANALYST\FRMMAIN.RESX|C:\USERS\JEREMY REAGAN\DOCUMENTS\VISUAL STUDIO 2010\PROJECTS\HL7 ANALYST\HL7 ANALYST\FRMMESSAGESTATS.RESX|C:\USERS\JEREMY REAGAN\DOCUMENTS\VISUAL STUDIO 2010\PROJECTS\HL7 ANALYST\HL7 ANALYST\FRMNEWREPORT.RESX|C:\USERS\JEREMY REAGAN\DOCUMENTS\VISUAL STUDIO 2010\PROJECTS\HL7 ANALYST\HL7 ANALYST\FRMOPTIONS.RESX|C:\USERS\JEREMY REAGAN\DOCUMENTS\VISUAL STUDIO 2010\PROJECTS\HL7 ANALYST\HL7 ANALYST\FRMREPORTS.RESX|C:\USERS\JEREMY REAGAN\DOCUMENTS\VISUAL STUDIO 2010\PROJECTS\HL7 ANALYST\HL7 ANALYST\FRMSEARCH.RESX|C:\USERS\JEREMY REAGAN\DOCUMENTS\VISUAL STUDIO 2010\PROJECTS\HL7 ANALYST\HL7 ANALYST\FRMSEGMENTS.RESX|C:\USERS\JEREMY REAGAN\DOCUMENTS\VISUAL STUDIO 2010\PROJECTS\HL7 ANALYST\HL7 ANALYST\FRMTCPIPCONNECTION.RESX|C:\USERS\JEREMY REAGAN\DOCUMENTS\VISUAL STUDIO 2010\PROJECTS\HL7 ANALYST\HL7 ANALYST\FRMUNIQUEVALUES.RESX|C:\USERS\JEREMY REAGAN\DOCUMENTS\VISUAL STUDIO 2010\PROJECTS\HL7 ANALYST\HL7 ANALYST\PROPERTIES\RESOURCES.RESX
C:\USERS\JEREMY REAGAN\DOCUMENTS\VISUAL STUDIO 2010\PROJECTS\HL7 ANALYST\HL7 ANALYST\OBJ\X86\DEBUG\HL7_ANALYST.FRMABOUT.RESOURCES
C:\USERS\JEREMY REAGAN\DOCUMENTS\VISUAL STUDIO 2010\PROJECTS\HL7 ANALYST\HL7 ANALYST\OBJ\X86\DEBUG\HL7_ANALYST.FRMBUILDSEARCH.RESOURCES
C:\USERS\JEREMY REAGAN\DOCUMENTS\VISUAL STUDIO 2010\PROJECTS\HL7 ANALYST\HL7 ANALYST\OBJ\X86\DEBUG\HL7_ANALYST.FRMDATABASECONNECTION.RESOURCES
C:\USERS\JEREMY REAGAN\DOCUMENTS\VISUAL STUDIO 2010\PROJECTS\HL7 ANALYST\HL7 ANALYST\OBJ\X86\DEBUG\HL7_ANALYST.FRMDATABASELOGIN.RESOURCES
C:\USERS\JEREMY REAGAN\DOCUMENTS\VISUAL STUDIO 2010\PROJECTS\HL7 ANALYST\HL7 ANALYST\OBJ\X86\DEBUG\HL7_ANALYST.FRMEDITFIELD.RESOURCES
C:\USERS\JEREMY REAGAN\DOCUMENTS\VISUAL STUDIO 2010\PROJECTS\HL7 ANALYST\HL7 ANALYST\OBJ\X86\DEBUG\HL7_ANALYST.FRMERRORREPORT.RESOURCES
C:\USERS\JEREMY REAGAN\DOCUMENTS\VISUAL STUDIO 2010\PROJECTS\HL7 ANALYST\HL7 ANALYST\OBJ\X86\DEBUG\HL7_ANALYST.FRMFILTER.RESOURCES
C:\USERS\JEREMY REAGAN\DOCUMENTS\VISUAL STUDIO 2010\PROJECTS\HL7 ANALYST\HL7 ANALYST\OBJ\X86\DEBUG\HL7_ANALYST.FRMFTPCONNECTION.RESOURCES
C:\USERS\JEREMY REAGAN\DOCUMENTS\VISUAL STUDIO 2010\PROJECTS\HL7 ANALYST\HL7 ANALYST\OBJ\X86\DEBUG\HL7_ANALYST.FRMLLP.RESOURCES
C:\USERS\JEREMY REAGAN\DOCUMENTS\VISUAL STUDIO 2010\PROJECTS\HL7 ANALYST\HL7 ANALYST\OBJ\X86\DEBUG\HL7_ANALYST.FRMMAIN.RESOURCES
C:\USERS\JEREMY REAGAN\DOCUMENTS\VISUAL STUDIO 2010\PROJECTS\HL7 ANALYST\HL7 ANALYST\OBJ\X86\DEBUG\HL7_ANALYST.FRMMESSAGESTATS.RESOURCES
C:\USERS\JEREMY REAGAN\DOCUMENTS\VISUAL STUDIO 2010\PROJECTS\HL7 ANALYST\HL7 ANALYST\OBJ\X86\DEBUG\HL7_ANALYST.FRMNEWREPORT.RESOURCES
C:\USERS\JEREMY REAGAN\DOCUMENTS\VISUAL STUDIO 2010\PROJECTS\HL7 ANALYST\HL7 ANALYST\OBJ\X86\DEBUG\HL7_ANALYST.FRMOPTIONS.RESOURCES
C:\USERS\JEREMY REAGAN\DOCUMENTS\VISUAL STUDIO 2010\PROJECTS\HL7 ANALYST\HL7 ANALYST\OBJ\X86\DEBUG\HL7_ANALYST.FRMREPORTS.RESOURCES
C:\USERS\JEREMY REAGAN\DOCUMENTS\VISUAL STUDIO 2010\PROJECTS\HL7 ANALYST\HL7 ANALYST\OBJ\X86\DEBUG\HL7_ANALYST.FRMSEARCH.RESOURCES
C:\USERS\JEREMY REAGAN\DOCUMENTS\VISUAL STUDIO 2010\PROJECTS\HL7 ANALYST\HL7 ANALYST\OBJ\X86\DEBUG\HL7_ANALYST.FRMSEGMENTS.RESOURCES
C:\USERS\JEREMY REAGAN\DOCUMENTS\VISUAL STUDIO 2010\PROJECTS\HL7 ANALYST\HL7 ANALYST\OBJ\X86\DEBUG\HL7_ANALYST.FRMTCPIPCONNECTION.RESOURCES
C:\USERS\JEREMY REAGAN\DOCUMENTS\VISUAL STUDIO 2010\PROJECTS\HL7 ANALYST\HL7 ANALYST\OBJ\X86\DEBUG\HL7_ANALYST.FRMUNIQUEVALUES.RESOURCES
C:\USERS\JEREMY REAGAN\DOCUMENTS\VISUAL STUDIO 2010\PROJECTS\HL7 ANALYST\HL7 ANALYST\OBJ\X86\DEBUG\HL7_ANALYST.PROPERTIES.RESOURCES.RESOURCES
^C:\USERS\JEREMY REAGAN\DOCUMENTS\VISUAL STUDIO 2010\PROJECTS\HL7 ANALYST\HL7 ANALYST\FRMABOUT.RESX|C:\USERS\JEREMY REAGAN\DOCUMENTS\VISUAL STUDIO 2010\PROJECTS\HL7 ANALYST\HL7 ANALYST\FRMBUILDSEARCH.RESX|C:\USERS\JEREMY REAGAN\DOCUMENTS\VISUAL STUDIO 2010\PROJECTS\HL7 ANALYST\HL7 ANALYST\FRMDATABASECONNECTION.RESX|C:\USERS\JEREMY REAGAN\DOCUMENTS\VISUAL STUDIO 2010\PROJECTS\HL7 ANALYST\HL7 ANALYST\FRMDATABASELOGIN.RESX|C:\USERS\JEREMY REAGAN\DOCUMENTS\VISUAL STUDIO 2010\PROJECTS\HL7 ANALYST\HL7 ANALYST\FRMEDITFIELD.RESX|C:\USERS\JEREMY REAGAN\DOCUMENTS\VISUAL STUDIO 2010\PROJECTS\HL7 ANALYST\HL7 ANALYST\FRMERRORREPORT.RESX|C:\USERS\JEREMY REAGAN\DOCUMENTS\VISUAL STUDIO 2010\PROJECTS\HL7 ANALYST\HL7 ANALYST\FRMFILTER.RESX|C:\USERS\JEREMY REAGAN\DOCUMENTS\VISUAL STUDIO 2010\PROJECTS\HL7 ANALYST\HL7 ANALYST\FRMFTPCONNECTION.RESX|C:\USERS\JEREMY REAGAN\DOCUMENTS\VISUAL STUDIO 2010\PROJECTS\HL7 ANALYST\HL7 ANALYST\FRMLLP.RESX|C:\USERS\JEREMY REAGAN\DOCUMENTS\VISUAL STUDIO 2010\PROJECTS\HL7 ANALYST\HL7 ANALYST\FRMMAIN.RESX|C:\USERS\JEREMY REAGAN\DOCUMENTS\VISUAL STUDIO 2010\PROJECTS\HL7 ANALYST\HL7 ANALYST\FRMMESSAGESTATS.RESX|C:\USERS\JEREMY REAGAN\DOCUMENTS\VISUAL STUDIO 2010\PROJECTS\HL7 ANALYST\HL7 ANALYST\FRMNEWREPORT.RESX|C:\USERS\JEREMY REAGAN\DOCUMENTS\VISUAL STUDIO 2010\PROJECTS\HL7 ANALYST\HL7 ANALYST\FRMOPTIONS.RESX|C:\USERS\JEREMY REAGAN\DOCUMENTS\VISUAL STUDIO 2010\PROJECTS\HL7 ANALYST\HL7 ANALYST\FRMREPORTS.RESX|C:\USERS\JEREMY REAGAN\DOCUMENTS\VISUAL STUDIO 2010\PROJECTS\HL7 ANALYST\HL7 ANALYST\FRMSEARCH.RESX|C:\USERS\JEREMY REAGAN\DOCUMENTS\VISUAL STUDIO 2010\PROJECTS\HL7 ANALYST\HL7 ANALYST\FRMSEGMENTS.RESX|C:\USERS\JEREMY REAGAN\DOCUMENTS\VISUAL STUDIO 2010\PROJECTS\HL7 ANALYST\HL7 ANALYST\FRMTCPIPCONNECTION.RESX|C:\USERS\JEREMY REAGAN\DOCUMENTS\VISUAL STUDIO 2010\PROJECTS\HL7 ANALYST\HL7 ANALYST\FRMUNIQUEVALUES.RESX|C:\USERS\JEREMY REAGAN\DOCUMENTS\VISUAL STUDIO 2010\PROJECTS\HL7 ANALYST\HL7 ANALYST\FRMUPDATEAVAILABLE.RESX|C:\USERS\JEREMY REAGAN\DOCUMENTS\VISUAL STUDIO 2010\PROJECTS\HL7 ANALYST\HL7 ANALYST\PROPERTIES\RESOURCES.RESX
C:\USERS\JEREMY REAGAN\DOCUMENTS\VISUAL STUDIO 2010\PROJECTS\HL7 ANALYST\HL7 ANALYST\OBJ\X86\DEBUG\HL7_ANALYST.FRMABOUT.RESOURCES
C:\USERS\JEREMY REAGAN\DOCUMENTS\VISUAL STUDIO 2010\PROJECTS\HL7 ANALYST\HL7 ANALYST\OBJ\X86\DEBUG\HL7_ANALYST.FRMBUILDSEARCH.RESOURCES
C:\USERS\JEREMY REAGAN\DOCUMENTS\VISUAL STUDIO 2010\PROJECTS\HL7 ANALYST\HL7 ANALYST\OBJ\X86\DEBUG\HL7_ANALYST.FRMDATABASECONNECTION.RESOURCES
C:\USERS\JEREMY REAGAN\DOCUMENTS\VISUAL STUDIO 2010\PROJECTS\HL7 ANALYST\HL7 ANALYST\OBJ\X86\DEBUG\HL7_ANALYST.FRMDATABASELOGIN.RESOURCES
C:\USERS\JEREMY REAGAN\DOCUMENTS\VISUAL STUDIO 2010\PROJECTS\HL7 ANALYST\HL7 ANALYST\OBJ\X86\DEBUG\HL7_ANALYST.FRMEDITFIELD.RESOURCES
C:\USERS\JEREMY REAGAN\DOCUMENTS\VISUAL STUDIO 2010\PROJECTS\HL7 ANALYST\HL7 ANALYST\OBJ\X86\DEBUG\HL7_ANALYST.FRMERRORREPORT.RESOURCES
C:\USERS\JEREMY REAGAN\DOCUMENTS\VISUAL STUDIO 2010\PROJECTS\HL7 ANALYST\HL7 ANALYST\OBJ\X86\DEBUG\HL7_ANALYST.FRMFILTER.RESOURCES
C:\USERS\JEREMY REAGAN\DOCUMENTS\VISUAL STUDIO 2010\PROJECTS\HL7 ANALYST\HL7 ANALYST\OBJ\X86\DEBUG\HL7_ANALYST.FRMFTPCONNECTION.RESOURCES
C:\USERS\JEREMY REAGAN\DOCUMENTS\VISUAL STUDIO 2010\PROJECTS\HL7 ANALYST\HL7 ANALYST\OBJ\X86\DEBUG\HL7_ANALYST.FRMLLP.RESOURCES
C:\USERS\JEREMY REAGAN\DOCUMENTS\VISUAL STUDIO 2010\PROJECTS\HL7 ANALYST\HL7 ANALYST\OBJ\X86\DEBUG\HL7_ANALYST.FRMMAIN.RESOURCES
C:\USERS\JEREMY REAGAN\DOCUMENTS\VISUAL STUDIO 2010\PROJECTS\HL7 ANALYST\HL7 ANALYST\OBJ\X86\DEBUG\HL7_ANALYST.FRMMESSAGESTATS.RESOURCES
C:\USERS\JEREMY REAGAN\DOCUMENTS\VISUAL STUDIO 2010\PROJECTS\HL7 ANALYST\HL7 ANALYST\OBJ\X86\DEBUG\HL7_ANALYST.FRMNEWREPORT.RESOURCES
C:\USERS\JEREMY REAGAN\DOCUMENTS\VISUAL STUDIO 2010\PROJECTS\HL7 ANALYST\HL7 ANALYST\OBJ\X86\DEBUG\HL7_ANALYST.FRMOPTIONS.RESOURCES
C:\USERS\JEREMY REAGAN\DOCUMENTS\VISUAL STUDIO 2010\PROJECTS\HL7 ANALYST\HL7 ANALYST\OBJ\X86\DEBUG\HL7_ANALYST.FRMREPORTS.RESOURCES
C:\USERS\JEREMY REAGAN\DOCUMENTS\VISUAL STUDIO 2010\PROJECTS\HL7 ANALYST\HL7 ANALYST\OBJ\X86\DEBUG\HL7_ANALYST.FRMSEARCH.RESOURCES
C:\USERS\JEREMY REAGAN\DOCUMENTS\VISUAL STUDIO 2010\PROJECTS\HL7 ANALYST\HL7 ANALYST\OBJ\X86\DEBUG\HL7_ANALYST.FRMSEGMENTS.RESOURCES
C:\USERS\JEREMY REAGAN\DOCUMENTS\VISUAL STUDIO 2010\PROJECTS\HL7 ANALYST\HL7 ANALYST\OBJ\X86\DEBUG\HL7_ANALYST.FRMTCPIPCONNECTION.RESOURCES
C:\USERS\JEREMY REAGAN\DOCUMENTS\VISUAL STUDIO 2010\PROJECTS\HL7 ANALYST\HL7 ANALYST\OBJ\X86\DEBUG\HL7_ANALYST.FRMUNIQUEVALUES.RESOURCES
C:\USERS\JEREMY REAGAN\DOCUMENTS\VISUAL STUDIO 2010\PROJECTS\HL7 ANALYST\HL7 ANALYST\OBJ\X86\DEBUG\HL7_ANALYST.FRMUPDATEAVAILABLE.RESOURCES
C:\USERS\JEREMY REAGAN\DOCUMENTS\VISUAL STUDIO 2010\PROJECTS\HL7 ANALYST\HL7 ANALYST\OBJ\X86\DEBUG\HL7_ANALYST.PROPERTIES.RESOURCES.RESOURCES
^C:\USERS\JEREMY REAGAN\DOCUMENTS\VISUAL STUDIO 2010\PROJECTS\HL7 ANALYST\HL7 ANALYST\FRMABOUT.RESX|C:\USERS\JEREMY REAGAN\DOCUMENTS\VISUAL STUDIO 2010\PROJECTS\HL7 ANALYST\HL7 ANALYST\FRMBUILDSEARCH.RESX|C:\USERS\JEREMY REAGAN\DOCUMENTS\VISUAL STUDIO 2010\PROJECTS\HL7 ANALYST\HL7 ANALYST\FRMDATABASECONNECTION.RESX|C:\USERS\JEREMY REAGAN\DOCUMENTS\VISUAL STUDIO 2010\PROJECTS\HL7 ANALYST\HL7 ANALYST\FRMDATABASELOGIN.RESX|C:\USERS\JEREMY REAGAN\DOCUMENTS\VISUAL STUDIO 2010\PROJECTS\HL7 ANALYST\HL7 ANALYST\FRMEDITFIELD.RESX|C:\USERS\JEREMY REAGAN\DOCUMENTS\VISUAL STUDIO 2010\PROJECTS\HL7 ANALYST\HL7 ANALYST\FRMERRORREPORT.RESX|C:\USERS\JEREMY REAGAN\DOCUMENTS\VISUAL STUDIO 2010\PROJECTS\HL7 ANALYST\HL7 ANALYST\FRMFILTER.RESX|C:\USERS\JEREMY REAGAN\DOCUMENTS\VISUAL STUDIO 2010\PROJECTS\HL7 ANALYST\HL7 ANALYST\FRMFTPCONNECTION.RESX|C:\USERS\JEREMY REAGAN\DOCUMENTS\VISUAL STUDIO 2010\PROJECTS\HL7 ANALYST\HL7 ANALYST\FRMHEX.RESX|C:\USERS\JEREMY REAGAN\DOCUMENTS\VISUAL STUDIO 2010\PROJECTS\HL7 ANALYST\HL7 ANALYST\FRMLLP.RESX|C:\USERS\JEREMY REAGAN\DOCUMENTS\VISUAL STUDIO 2010\PROJECTS\HL7 ANALYST\HL7 ANALYST\FRMMAIN.RESX|C:\USERS\JEREMY REAGAN\DOCUMENTS\VISUAL STUDIO 2010\PROJECTS\HL7 ANALYST\HL7 ANALYST\FRMMESSAGESTATS.RESX|C:\USERS\JEREMY REAGAN\DOCUMENTS\VISUAL STUDIO 2010\PROJECTS\HL7 ANALYST\HL7 ANALYST\FRMNEWREPORT.RESX|C:\USERS\JEREMY REAGAN\DOCUMENTS\VISUAL STUDIO 2010\PROJECTS\HL7 ANALYST\HL7 ANALYST\FRMOPTIONS.RESX|C:\USERS\JEREMY REAGAN\DOCUMENTS\VISUAL STUDIO 2010\PROJECTS\HL7 ANALYST\HL7 ANALYST\FRMREPORTS.RESX|C:\USERS\JEREMY REAGAN\DOCUMENTS\VISUAL STUDIO 2010\PROJECTS\HL7 ANALYST\HL7 ANALYST\FRMSEARCH.RESX|C:\USERS\JEREMY REAGAN\DOCUMENTS\VISUAL STUDIO 2010\PROJECTS\HL7 ANALYST\HL7 ANALYST\FRMSEGMENTS.RESX|C:\USERS\JEREMY REAGAN\DOCUMENTS\VISUAL STUDIO 2010\PROJECTS\HL7 ANALYST\HL7 ANALYST\FRMTCPIPCONNECTION.RESX|C:\USERS\JEREMY REAGAN\DOCUMENTS\VISUAL STUDIO 2010\PROJECTS\HL7 ANALYST\HL7 ANALYST\FRMUNIQUEVALUES.RESX|C:\USERS\JEREMY REAGAN\DOCUMENTS\VISUAL STUDIO 2010\PROJECTS\HL7 ANALYST\HL7 ANALYST\FRMUPDATEAVAILABLE.RESX|C:\USERS\JEREMY REAGAN\DOCUMENTS\VISUAL STUDIO 2010\PROJECTS\HL7 ANALYST\HL7 ANALYST\PROPERTIES\RESOURCES.RESX
C:\USERS\JEREMY REAGAN\DOCUMENTS\VISUAL STUDIO 2010\PROJECTS\HL7 ANALYST\HL7 ANALYST\OBJ\X86\DEBUG\HL7_ANALYST.FRMABOUT.RESOURCES
C:\USERS\JEREMY REAGAN\DOCUMENTS\VISUAL STUDIO 2010\PROJECTS\HL7 ANALYST\HL7 ANALYST\OBJ\X86\DEBUG\HL7_ANALYST.FRMBUILDSEARCH.RESOURCES
C:\USERS\JEREMY REAGAN\DOCUMENTS\VISUAL STUDIO 2010\PROJECTS\HL7 ANALYST\HL7 ANALYST\OBJ\X86\DEBUG\HL7_ANALYST.FRMDATABASECONNECTION.RESOURCES
C:\USERS\JEREMY REAGAN\DOCUMENTS\VISUAL STUDIO 2010\PROJECTS\HL7 ANALYST\HL7 ANALYST\OBJ\X86\DEBUG\HL7_ANALYST.FRMDATABASELOGIN.RESOURCES
C:\USERS\JEREMY REAGAN\DOCUMENTS\VISUAL STUDIO 2010\PROJECTS\HL7 ANALYST\HL7 ANALYST\OBJ\X86\DEBUG\HL7_ANALYST.FRMEDITFIELD.RESOURCES
C:\USERS\JEREMY REAGAN\DOCUMENTS\VISUAL STUDIO 2010\PROJECTS\HL7 ANALYST\HL7 ANALYST\OBJ\X86\DEBUG\HL7_ANALYST.FRMERRORREPORT.RESOURCES
C:\USERS\JEREMY REAGAN\DOCUMENTS\VISUAL STUDIO 2010\PROJECTS\HL7 ANALYST\HL7 ANALYST\OBJ\X86\DEBUG\HL7_ANALYST.FRMFILTER.RESOURCES
C:\USERS\JEREMY REAGAN\DOCUMENTS\VISUAL STUDIO 2010\PROJECTS\HL7 ANALYST\HL7 ANALYST\OBJ\X86\DEBUG\HL7_ANALYST.FRMFTPCONNECTION.RESOURCES
C:\USERS\JEREMY REAGAN\DOCUMENTS\VISUAL STUDIO 2010\PROJECTS\HL7 ANALYST\HL7 ANALYST\OBJ\X86\DEBUG\HL7_ANALYST.FRMHEX.RESOURCES
C:\USERS\JEREMY REAGAN\DOCUMENTS\VISUAL STUDIO 2010\PROJECTS\HL7 ANALYST\HL7 ANALYST\OBJ\X86\DEBUG\HL7_ANALYST.FRMLLP.RESOURCES
C:\USERS\JEREMY REAGAN\DOCUMENTS\VISUAL STUDIO 2010\PROJECTS\HL7 ANALYST\HL7 ANALYST\OBJ\X86\DEBUG\HL7_ANALYST.FRMMAIN.RESOURCES
C:\USERS\JEREMY REAGAN\DOCUMENTS\VISUAL STUDIO 2010\PROJECTS\HL7 ANALYST\HL7 ANALYST\OBJ\X86\DEBUG\HL7_ANALYST.FRMMESSAGESTATS.RESOURCES
C:\USERS\JEREMY REAGAN\DOCUMENTS\VISUAL STUDIO 2010\PROJECTS\HL7 ANALYST\HL7 ANALYST\OBJ\X86\DEBUG\HL7_ANALYST.FRMNEWREPORT.RESOURCES
C:\USERS\JEREMY REAGAN\DOCUMENTS\VISUAL STUDIO 2010\PROJECTS\HL7 ANALYST\HL7 ANALYST\OBJ\X86\DEBUG\HL7_ANALYST.FRMOPTIONS.RESOURCES
C:\USERS\JEREMY REAGAN\DOCUMENTS\VISUAL STUDIO 2010\PROJECTS\HL7 ANALYST\HL7 ANALYST\OBJ\X86\DEBUG\HL7_ANALYST.FRMREPORTS.RESOURCES
C:\USERS\JEREMY REAGAN\DOCUMENTS\VISUAL STUDIO 2010\PROJECTS\HL7 ANALYST\HL7 ANALYST\OBJ\X86\DEBUG\HL7_ANALYST.FRMSEARCH.RESOURCES
C:\USERS\JEREMY REAGAN\DOCUMENTS\VISUAL STUDIO 2010\PROJECTS\HL7 ANALYST\HL7 ANALYST\OBJ\X86\DEBUG\HL7_ANALYST.FRMSEGMENTS.RESOURCES
C:\USERS\JEREMY REAGAN\DOCUMENTS\VISUAL STUDIO 2010\PROJECTS\HL7 ANALYST\HL7 ANALYST\OBJ\X86\DEBUG\HL7_ANALYST.FRMTCPIPCONNECTION.RESOURCES
C:\USERS\JEREMY REAGAN\DOCUMENTS\VISUAL STUDIO 2010\PROJECTS\HL7 ANALYST\HL7 ANALYST\OBJ\X86\DEBUG\HL7_ANALYST.FRMUNIQUEVALUES.RESOURCES
C:\USERS\JEREMY REAGAN\DOCUMENTS\VISUAL STUDIO 2010\PROJECTS\HL7 ANALYST\HL7 ANALYST\OBJ\X86\DEBUG\HL7_ANALYST.FRMUPDATEAVAILABLE.RESOURCES
C:\USERS\JEREMY REAGAN\DOCUMENTS\VISUAL STUDIO 2010\PROJECTS\HL7 ANALYST\HL7 ANALYST\OBJ\X86\DEBUG\HL7_ANALYST.PROPERTIES.RESOURCES.RESOURCES
